<?xml version="1.0" encoding="utf-8"?>
<!-- Generator: Adobe Illustrator 24.0.1, SVG Export Plug-In . SVG Version: 6.00 Build 0)  -->
<svg version="1.1" id="Layer_1" xmlns="http://www.w3.org/2000/svg" xmlns:xlink="http://www.w3.org/1999/xlink" x="0px" y="0px"
	 viewBox="0 0 48 48" style="enable-background:new 0 0 48 48;" xml:space="preserve">
<g id="_7704640_chart_data_evaluate_planning_module_icon" transform="translate(-37.22 -35.43)">
	<path id="Path_15" d="M68.35,53.41c0-0.61-0.04-1.21-0.11-1.81c-0.01-0.05-0.02-0.11-0.03-0.16c-0.07,0.01-0.14,0.01-0.22,0.01
		c-0.23,0.02-0.46,0.06-0.69,0.1c-0.27,0.04-0.53,0.08-0.8,0.14c-0.23,0.05-0.45,0.11-0.67,0.16c-0.26,0.06-0.51,0.13-0.76,0.21
		c-0.22,0.07-0.44,0.15-0.66,0.22c-0.24,0.09-0.49,0.18-0.72,0.28c-0.21,0.09-0.42,0.18-0.63,0.28c-0.23,0.11-0.46,0.22-0.69,0.34
		c-0.2,0.11-0.4,0.22-0.6,0.34c-0.16,0.1-0.32,0.2-0.48,0.3h7.04C68.33,53.68,68.35,53.54,68.35,53.41z"/>
	<path id="Path_16" d="M66.25,61.07c0.11-0.19,0.22-0.38,0.33-0.57c0.12-0.23,0.23-0.48,0.34-0.73c0.09-0.19,0.18-0.38,0.26-0.58
		H56.13c-0.09,0.16-0.19,0.32-0.28,0.48c-0.12,0.24-0.23,0.48-0.34,0.72c-0.09,0.2-0.19,0.39-0.27,0.59
		c-0.02,0.05-0.04,0.11-0.06,0.16H66.2L66.25,61.07z"/>
	<path id="Path_17" d="M51.59,68.7c-0.07-0.64-0.11-1.28-0.11-1.92c0-0.59,0.03-1.18,0.09-1.76c0.02-0.2,0.06-0.38,0.08-0.58
		c0.05-0.38,0.1-0.76,0.17-1.13c0.05-0.23,0.11-0.45,0.16-0.67c0.08-0.33,0.16-0.67,0.26-0.99c0.07-0.23,0.16-0.46,0.24-0.69
		c0.11-0.3,0.21-0.61,0.33-0.91c0.1-0.23,0.2-0.46,0.31-0.68c0.13-0.28,0.26-0.57,0.4-0.84c0.12-0.22,0.25-0.44,0.37-0.66
		c0.15-0.26,0.31-0.53,0.48-0.78c0.14-0.22,0.29-0.42,0.44-0.63c0.18-0.25,0.35-0.49,0.54-0.73c0.16-0.2,0.33-0.4,0.49-0.59
		c0.2-0.23,0.4-0.46,0.6-0.68c0.18-0.19,0.36-0.37,0.54-0.54c0.22-0.21,0.44-0.42,0.67-0.62c0.19-0.17,0.39-0.33,0.59-0.49
		c0.24-0.19,0.48-0.37,0.73-0.56c0.2-0.15,0.41-0.3,0.62-0.44c0.26-0.17,0.52-0.33,0.79-0.49c0.22-0.13,0.44-0.26,0.66-0.38
		c0.28-0.15,0.56-0.29,0.84-0.42c0.23-0.11,0.45-0.22,0.68-0.32c0.29-0.13,0.6-0.23,0.9-0.34c0.23-0.08,0.46-0.17,0.71-0.25
		c0.32-0.1,0.64-0.18,0.96-0.26c0.23-0.06,0.46-0.13,0.71-0.18c0.34-0.07,0.69-0.13,1.05-0.18c0.23-0.04,0.45-0.08,0.68-0.11
		c0.04,0,0.07-0.01,0.1-0.02c-0.49-1.57-1.23-3.06-2.19-4.4l6.55-6.5h6.59c0.72,0,1.3-0.58,1.3-1.29c0-0.71-0.58-1.29-1.3-1.29l0,0
		h-7.13c-0.34,0-0.68,0.14-0.92,0.38l-6.79,6.73c-6.07-6.03-15.92-6.04-22-0.01s-6.08,15.79-0.01,21.82
		c2.63,2.61,6.12,4.2,9.83,4.48C51.59,68.77,51.6,68.73,51.59,68.7z"/>
	<path id="Path_18" d="M54.09,66.77c0,0.6,0.04,1.21,0.12,1.81c0.01,0.06,0.02,0.11,0.03,0.17c0.07-0.01,0.15-0.01,0.22-0.02
		c0.23-0.02,0.46-0.06,0.68-0.1c0.27-0.04,0.54-0.08,0.81-0.14c0.23-0.05,0.45-0.1,0.67-0.16c0.26-0.07,0.51-0.13,0.77-0.21
		c0.22-0.07,0.44-0.14,0.65-0.22c0.25-0.09,0.49-0.18,0.73-0.28c0.21-0.09,0.42-0.18,0.63-0.28c0.23-0.11,0.46-0.22,0.69-0.35
		c0.2-0.11,0.4-0.22,0.6-0.33c0.07-0.04,0.14-0.09,0.21-0.13H54.1C54.09,66.62,54.09,66.7,54.09,66.77z"/>
	<path id="Path_19" d="M70.83,51.38c0,0.03,0,0.07,0.01,0.1c0.07,0.64,0.11,1.28,0.11,1.92c0,0.59-0.03,1.18-0.09,1.76
		c-0.02,0.2-0.06,0.39-0.08,0.58c-0.05,0.38-0.1,0.76-0.17,1.13c-0.05,0.23-0.11,0.45-0.16,0.67c-0.08,0.33-0.16,0.66-0.26,0.99
		c-0.07,0.23-0.16,0.46-0.24,0.69c-0.11,0.3-0.21,0.61-0.33,0.9c-0.1,0.23-0.2,0.46-0.31,0.69c-0.13,0.28-0.26,0.56-0.4,0.84
		c-0.12,0.23-0.25,0.44-0.38,0.66c-0.15,0.26-0.3,0.53-0.47,0.78c-0.14,0.22-0.29,0.43-0.44,0.63c-0.17,0.24-0.35,0.49-0.54,0.72
		c-0.16,0.2-0.33,0.4-0.5,0.6c-0.19,0.23-0.39,0.45-0.6,0.67c-0.17,0.18-0.35,0.36-0.53,0.54c-0.02,0.02-0.04,0.04-0.07,0.07
		c-0.2,0.19-0.4,0.37-0.6,0.56c-0.2,0.18-0.39,0.34-0.59,0.5c-0.23,0.19-0.47,0.37-0.72,0.54c-0.21,0.15-0.42,0.3-0.64,0.45
		c-0.25,0.17-0.51,0.33-0.77,0.48c-0.22,0.13-0.44,0.26-0.67,0.39c-0.27,0.15-0.55,0.28-0.83,0.41c-0.23,0.11-0.46,0.22-0.69,0.32
		c-0.29,0.12-0.59,0.23-0.89,0.34c-0.24,0.09-0.47,0.18-0.71,0.25c-0.31,0.1-0.64,0.18-0.96,0.26c-0.24,0.06-0.47,0.13-0.71,0.18
		c-0.35,0.07-0.7,0.13-1.05,0.18c-0.22,0.04-0.44,0.08-0.67,0.11c-0.04,0-0.07,0.01-0.11,0.02c0.33,1.06,0.78,2.08,1.33,3.05
		l-6.52,6.46H43c-0.72,0-1.3,0.58-1.3,1.29c0,0.71,0.58,1.29,1.3,1.29l0,0h7.13c0.34,0,0.68-0.14,0.92-0.38l6.55-6.5
		c5.43,6.61,15.23,7.6,21.89,2.21c6.66-5.39,7.66-15.11,2.23-21.72C79.03,53.74,75.09,51.7,70.83,51.38L70.83,51.38z"/>
	<path id="Path_20" d="M63.57,64.47c0.16-0.16,0.33-0.31,0.48-0.47c0.18-0.19,0.35-0.38,0.51-0.57c0.15-0.17,0.29-0.34,0.43-0.51
		c0.01-0.01,0.02-0.03,0.03-0.04H54.61c-0.03,0.11-0.06,0.23-0.09,0.35c-0.05,0.19-0.1,0.38-0.14,0.58
		c-0.06,0.32-0.11,0.65-0.15,0.98c0,0.02,0,0.03-0.01,0.05h8.96C63.31,64.7,63.44,64.59,63.57,64.47z"/>
	<path id="Path_21" d="M67.91,56.97c0.05-0.19,0.1-0.38,0.14-0.58c0.06-0.28,0.09-0.57,0.13-0.86h-9.12
		c-0.07,0.06-0.14,0.12-0.2,0.19c-0.16,0.16-0.33,0.31-0.48,0.48c-0.18,0.19-0.35,0.38-0.51,0.57c-0.15,0.17-0.29,0.34-0.43,0.51
		c-0.05,0.07-0.1,0.14-0.15,0.21h10.49C67.82,57.31,67.86,57.14,67.91,56.97z"/>
	<path id="Path_22" d="M43,76.21c-0.72,0-1.3,0.58-1.3,1.29c0,0.71,0.58,1.29,1.3,1.29h6.33c0.72,0,1.3-0.58,1.3-1.29
		c0-0.71-0.58-1.29-1.3-1.29l0,0H43z"/>
	<path id="Path_23" d="M78.62,39.81h-6.33c-0.72,0-1.3,0.58-1.3,1.29c0,0.71,0.58,1.29,1.3,1.29h6.33c0.72,0,1.3-0.58,1.3-1.29
		C79.92,40.39,79.34,39.81,78.62,39.81z"/>
</g>
</svg>
