<svg xmlns="http://www.w3.org/2000/svg" width="48" height="48" viewBox="0 0 48 48">
  <g id="Group_297" data-name="Group 297" transform="translate(-200 -117)">
    <rect id="Rectangle_324" data-name="Rectangle 324" width="48" height="48" transform="translate(200 117)" fill="none"/>
    <g id="mail" transform="translate(200 80.25)">
      <g id="Group_6" data-name="Group 6" transform="translate(0 42.749)">
        <g id="Group_5" data-name="Group 5" transform="translate(0 0)">
          <path id="Path_3" data-name="Path 3" d="M31.278,62.925a.923.923,0,0,0,1.02,0L37.491,58.4,51.509,46.2l3.325-2.9a2.721,2.721,0,0,0-1.662-.556H10.329a2.723,2.723,0,0,0-1.714.563L26.009,58.4Z" transform="translate(-7.75 -42.749)"/>
          <path id="Path_4" data-name="Path 4" d="M.008,92.806,16.426,78.485.008,64.257a2.153,2.153,0,0,0,0,.376Z" transform="translate(0 -62.285)"/>
          <path id="Path_5" data-name="Path 5" d="M25.787,235.253a2.863,2.863,0,0,1-1.714.548,2.688,2.688,0,0,1-1.242-.305,2.6,2.6,0,0,1-.368-.227l-4.721-4.1L.082,246.546v.994a2.467,2.467,0,0,0,2.571,2.348H45.82a2.43,2.43,0,0,0,2.245-2.348v-1.01L30.448,231.2Z" transform="translate(-0.074 -213.888)"/>
          <path id="Path_6" data-name="Path 6" d="M330.867,64.086,314.45,78.353l16.417,14.259V64.477A2.229,2.229,0,0,0,330.867,64.086Z" transform="translate(-282.876 -62.129)"/>
        </g>
      </g>
    </g>
  </g>
</svg>
