<?xml version="1.0" encoding="utf-8"?>
<!-- Generator: Adobe Illustrator 24.0.1, SVG Export Plug-In . SVG Version: 6.00 Build 0)  -->
<svg version="1.1" id="Layer_1" xmlns="http://www.w3.org/2000/svg" xmlns:xlink="http://www.w3.org/1999/xlink" x="0px" y="0px"
	 viewBox="0 0 48 48" style="enable-background:new 0 0 48 48;" xml:space="preserve">
<g>
	<path d="M6.78,21.88l0,4.19l1.04,0l0-4.19c3.2-0.2,5.74-2.86,5.74-6.11v-0.13c-3.08,0-5.61,2.27-6.06,5.22H7.1
		c-0.44-2.95-2.98-5.22-6.06-5.22v0.13C1.04,19.02,3.58,21.68,6.78,21.88z"/>
	<path d="M23.47,21.88l0,4.19l1.04,0l0-4.19c3.2-0.2,5.74-2.86,5.74-6.11v-0.13c-3.08,0-5.61,2.27-6.06,5.22H23.8
		c-0.44-2.95-2.98-5.22-6.06-5.22v0.13C17.74,19.02,20.27,21.68,23.47,21.88z"/>
	<path d="M40.17,21.88l0,4.19l1.04,0l0-4.19c3.2-0.2,5.74-2.86,5.74-6.11v-0.13c-3.08,0-5.61,2.27-6.06,5.22h-0.41
		c-0.44-2.95-2.98-5.22-6.06-5.22v0.13C34.44,19.02,36.97,21.68,40.17,21.88z"/>
	<path d="M45.39,30.7v0.01c0,0.9-0.73,1.63-1.63,1.63h-6.13c-0.9,0-1.63-0.73-1.63-1.63v0c0-0.34-0.29-0.61-0.63-0.58
		c-0.41,0.04-0.88,0.07-1.46,0.07c-2.4,0-3.1-0.47-4.51-0.75c-0.36-0.07-0.71,0.2-0.71,0.57v0.68c0,0.9-0.73,1.63-1.63,1.63h-6.13
		c-0.9,0-1.63-0.73-1.63-1.63V30.7c0-0.29-0.22-0.54-0.51-0.57c-1.95-0.23-2.46-0.87-5.23-0.87c-0.38,0-0.72,0.01-1.02,0.03
		c-0.3,0.02-0.54,0.28-0.54,0.58l0,0.84c0,0.9-0.73,1.63-1.63,1.63H4.24c-0.9,0-1.63-0.73-1.63-1.63l0-0.71
		c0-0.28-0.2-0.53-0.47-0.58c-0.42-0.08-0.91-0.14-1.52-0.16C0.28,29.25,0,29.52,0,29.85l0,17.55c0,0.32,0.26,0.59,0.59,0.59h46.83
		c0.32,0,0.59-0.26,0.59-0.59l0-16.62c0-0.32-0.26-0.58-0.57-0.59c-0.48-0.01-0.98-0.04-1.4-0.08
		C45.69,30.09,45.39,30.36,45.39,30.7z M1.57,44.34c-0.58,0-1.04-0.47-1.04-1.04s0.47-1.04,1.04-1.04s1.04,0.47,1.04,1.04
		S2.14,44.34,1.57,44.34z M5.16,41.47l-0.9,0.53c-0.48-0.82-0.68-1.63-0.59-2.41c0.04-0.33,0.11-0.52,0.23-0.8
		c0.08-0.19,0.18-0.45,0.32-0.87c0.33-0.98,0.48-1.43,0.5-1.94c0.02-0.59-0.13-1.21-0.46-1.82l0.92-0.49
		c0.41,0.78,0.61,1.57,0.58,2.35c-0.02,0.66-0.21,1.22-0.55,2.23c-0.15,0.45-0.26,0.72-0.34,0.93c-0.1,0.26-0.14,0.34-0.16,0.53
		C4.65,40.25,4.8,40.84,5.16,41.47z M7.23,41.47l-0.9,0.53c-0.48-0.82-0.68-1.63-0.59-2.41c0.04-0.33,0.11-0.52,0.23-0.8
		c0.08-0.19,0.18-0.45,0.32-0.87c0.32-0.95,0.48-1.43,0.5-1.94c0.02-0.59-0.13-1.21-0.46-1.82l0.92-0.49
		c0.41,0.78,0.61,1.57,0.58,2.35c-0.02,0.66-0.21,1.22-0.55,2.23c-0.15,0.45-0.26,0.72-0.34,0.92c-0.1,0.26-0.14,0.34-0.16,0.53
		C6.71,40.25,6.87,40.84,7.23,41.47z M9.37,38.24c-0.15,0.45-0.26,0.72-0.34,0.93c-0.1,0.26-0.14,0.34-0.16,0.53
		c-0.06,0.55,0.09,1.14,0.45,1.76l-0.9,0.53c-0.48-0.82-0.68-1.63-0.59-2.41c0.04-0.33,0.11-0.52,0.23-0.8
		c0.08-0.19,0.18-0.45,0.32-0.87c0.33-0.98,0.48-1.43,0.5-1.94c0.02-0.59-0.13-1.21-0.46-1.82l0.92-0.49
		c0.41,0.78,0.61,1.57,0.58,2.35C9.89,36.67,9.7,37.23,9.37,38.24z M16.17,44.34c-0.58,0-1.04-0.47-1.04-1.04s0.47-1.04,1.04-1.04
		c0.58,0,1.04,0.47,1.04,1.04S16.75,44.34,16.17,44.34z M21.86,41.47l-0.9,0.53c-0.48-0.82-0.68-1.63-0.59-2.41
		c0.04-0.33,0.11-0.52,0.23-0.8c0.08-0.19,0.18-0.45,0.32-0.87c0.33-0.98,0.48-1.43,0.5-1.94c0.02-0.59-0.13-1.21-0.46-1.82
		l0.92-0.49c0.41,0.78,0.61,1.57,0.58,2.35c-0.02,0.66-0.21,1.22-0.55,2.23c-0.15,0.45-0.26,0.72-0.34,0.93
		c-0.1,0.26-0.14,0.34-0.16,0.53C21.34,40.25,21.5,40.84,21.86,41.47z M23.93,41.47l-0.9,0.53c-0.48-0.82-0.68-1.63-0.59-2.41
		c0.04-0.33,0.11-0.52,0.23-0.8c0.08-0.19,0.18-0.45,0.32-0.87c0.32-0.95,0.48-1.43,0.5-1.94c0.02-0.59-0.13-1.21-0.46-1.82
		l0.92-0.49c0.41,0.78,0.61,1.57,0.58,2.35c-0.02,0.66-0.21,1.22-0.55,2.23c-0.15,0.45-0.26,0.72-0.34,0.92
		c-0.1,0.26-0.14,0.34-0.16,0.53C23.41,40.25,23.56,40.84,23.93,41.47z M26.06,38.24c-0.15,0.45-0.26,0.72-0.34,0.93
		c-0.1,0.26-0.14,0.34-0.16,0.53c-0.06,0.55,0.09,1.14,0.45,1.76l-0.9,0.53c-0.48-0.82-0.68-1.63-0.59-2.41
		c0.04-0.33,0.11-0.52,0.23-0.8c0.08-0.19,0.18-0.45,0.32-0.87c0.33-0.98,0.48-1.43,0.5-1.94c0.02-0.59-0.13-1.21-0.46-1.82
		l0.92-0.49c0.41,0.78,0.61,1.57,0.58,2.35C26.59,36.67,26.4,37.23,26.06,38.24z M31.3,37.03c-0.58,0-1.04-0.47-1.04-1.04
		s0.47-1.04,1.04-1.04s1.04,0.47,1.04,1.04S31.88,37.03,31.3,37.03z M38.56,41.47l-0.9,0.53c-0.48-0.82-0.68-1.63-0.59-2.41
		c0.04-0.33,0.11-0.52,0.23-0.8c0.08-0.19,0.18-0.45,0.32-0.87c0.33-0.98,0.48-1.43,0.5-1.94c0.02-0.59-0.13-1.21-0.46-1.82
		l0.92-0.49c0.41,0.78,0.61,1.57,0.58,2.35c-0.02,0.66-0.21,1.22-0.55,2.23c-0.15,0.45-0.26,0.72-0.34,0.93
		c-0.1,0.26-0.14,0.34-0.16,0.53C38.04,40.25,38.19,40.84,38.56,41.47z M40.62,41.47l-0.9,0.53c-0.48-0.82-0.68-1.63-0.59-2.41
		c0.04-0.33,0.11-0.52,0.23-0.8c0.08-0.19,0.18-0.45,0.32-0.87c0.32-0.95,0.48-1.43,0.5-1.94c0.02-0.59-0.13-1.21-0.46-1.82
		l0.92-0.49c0.41,0.78,0.61,1.57,0.58,2.35c-0.02,0.66-0.21,1.22-0.55,2.23c-0.15,0.45-0.26,0.72-0.34,0.92
		c-0.1,0.26-0.14,0.34-0.16,0.53C40.11,40.25,40.26,40.84,40.62,41.47z M42.71,41.47l-0.9,0.53c-0.48-0.82-0.68-1.63-0.59-2.41
		c0.04-0.33,0.11-0.52,0.23-0.8c0.08-0.19,0.18-0.45,0.32-0.87c0.33-0.98,0.48-1.43,0.5-1.94c0.02-0.59-0.13-1.21-0.46-1.82
		l0.92-0.49c0.41,0.78,0.61,1.57,0.58,2.35c-0.02,0.66-0.21,1.22-0.55,2.23c-0.15,0.45-0.26,0.72-0.34,0.93
		c-0.1,0.26-0.14,0.34-0.16,0.53C42.19,40.25,42.35,40.84,42.71,41.47z M43.83,43.82c-0.58,0-1.04-0.47-1.04-1.04
		s0.47-1.04,1.04-1.04s1.04,0.47,1.04,1.04S44.4,43.82,43.83,43.82z"/>
	<circle cx="24" cy="5.73" r="3.13"/>
	<rect x="23.48" y="-0.01" width="1.04" height="1.57"/>
	<rect x="23.48" y="9.9" width="1.04" height="1.57"/>
	<rect x="28.17" y="5.21" width="1.57" height="1.04"/>
	<rect x="18.26" y="5.21" width="1.57" height="1.04"/>
	<rect x="26.72" y="1.7" transform="matrix(0.7071 -0.7071 0.7071 0.7071 6.4822 20.1008)" width="1.57" height="1.04"/>
	<rect x="19.71" y="8.71" transform="matrix(0.7072 -0.707 0.707 0.7072 -0.5295 17.1945)" width="1.57" height="1.04"/>
	<rect x="26.98" y="8.45" transform="matrix(0.7071 -0.7071 0.7071 0.7071 1.5255 22.154)" width="1.04" height="1.57"/>
	<rect x="19.97" y="1.44" transform="matrix(0.707 -0.7072 0.7072 0.707 4.4311 15.146)" width="1.04" height="1.57"/>
	<path d="M22.44,31.3h3.13c1.15,0,2.09-0.93,2.09-2.09v0c0-1.15-0.93-2.09-2.09-2.09h-3.13c-1.15,0-2.09,0.93-2.09,2.09v0
		C20.35,30.36,21.28,31.3,22.44,31.3z M25.04,28.69L25.04,28.69c0.29,0,0.52,0.23,0.52,0.52v0c0,0.29-0.23,0.52-0.52,0.52h0
		c-0.29,0-0.52-0.23-0.52-0.52v0C24.52,28.92,24.76,28.69,25.04,28.69z M22.44,28.17L22.44,28.17c0.29,0,0.52,0.23,0.52,0.52l0,0
		c0,0.29-0.23,0.52-0.52,0.52h0c-0.29,0-0.52-0.23-0.52-0.52l0,0C21.91,28.4,22.15,28.17,22.44,28.17z"/>
	<path d="M5.74,31.3h3.13c1.15,0,2.09-0.93,2.09-2.09v0c0-1.15-0.93-2.09-2.09-2.09H5.74c-1.15,0-2.09,0.93-2.09,2.09v0
		C3.65,30.36,4.59,31.3,5.74,31.3z M8.35,28.69L8.35,28.69c0.29,0,0.52,0.23,0.52,0.52v0c0,0.29-0.23,0.52-0.52,0.52h0
		c-0.29,0-0.52-0.23-0.52-0.52v0C7.83,28.92,8.06,28.69,8.35,28.69z M5.74,28.17L5.74,28.17c0.29,0,0.52,0.23,0.52,0.52l0,0
		c0,0.29-0.23,0.52-0.52,0.52h0c-0.29,0-0.52-0.23-0.52-0.52l0,0C5.22,28.4,5.45,28.17,5.74,28.17z"/>
	<path d="M39.13,31.3h3.13c1.15,0,2.09-0.93,2.09-2.09v0c0-1.15-0.93-2.09-2.09-2.09h-3.13c-1.15,0-2.09,0.93-2.09,2.09v0
		C37.04,30.36,37.98,31.3,39.13,31.3z M41.74,28.69L41.74,28.69c0.29,0,0.52,0.23,0.52,0.52v0c0,0.29-0.23,0.52-0.52,0.52l0,0
		c-0.29,0-0.52-0.23-0.52-0.52v0C41.22,28.92,41.45,28.69,41.74,28.69z M39.13,28.17L39.13,28.17c0.29,0,0.52,0.23,0.52,0.52l0,0
		c0,0.29-0.23,0.52-0.52,0.52l0,0c-0.29,0-0.52-0.23-0.52-0.52l0,0C38.61,28.4,38.84,28.17,39.13,28.17z"/>
</g>
</svg>
