<?xml version="1.0" encoding="utf-8"?>
<!-- Generator: Adobe Illustrator 24.0.1, SVG Export Plug-In . SVG Version: 6.00 Build 0)  -->
<svg version="1.1" id="Layer_1" xmlns="http://www.w3.org/2000/svg" xmlns:xlink="http://www.w3.org/1999/xlink" x="0px" y="0px"
	 viewBox="0 0 48 48" style="enable-background:new 0 0 48 48;" xml:space="preserve">
<path id="Subtraction_1" d="M23.98,47.99c-6.37,0.02-12.48-2.51-16.97-7.03c-4.52-4.49-7.05-10.6-7.03-16.97
	C-0.03,17.63,2.5,11.52,7.01,7.02c4.49-4.52,10.6-7.05,16.97-7.03c6.37-0.02,12.48,2.52,16.97,7.03c4.52,4.49,7.05,10.6,7.03,16.97
	c0.02,6.37-2.52,12.48-7.03,16.97C36.46,45.48,30.35,48.01,23.98,47.99z M8.98,33.42L8.98,33.42c2.81,1.81,6.09,2.77,9.43,2.76
	c2.59,0.02,5.15-0.52,7.51-1.59c2.1-0.97,3.97-2.37,5.49-4.11c2.87-3.27,4.47-7.46,4.51-11.8c0-0.27,0-0.53-0.02-0.8
	c1.21-0.87,2.25-1.95,3.07-3.18c-1.12,0.5-2.32,0.82-3.54,0.97c1.28-0.77,2.24-1.98,2.7-3.41c-1.2,0.72-2.52,1.23-3.9,1.5
	c-1.17-1.24-2.8-1.95-4.5-1.95c-3.39,0.01-6.14,2.76-6.15,6.15c0,0.47,0.05,0.94,0.16,1.4c-4.95-0.26-9.56-2.59-12.69-6.43
	c-0.55,0.94-0.83,2.01-0.83,3.09c0,2.06,1.03,3.98,2.74,5.12c-0.98-0.03-1.93-0.29-2.79-0.77v0.08c0,2.93,2.07,5.45,4.94,6.03
	c-0.53,0.14-1.07,0.22-1.62,0.22c-0.39,0-0.78-0.04-1.16-0.11c0.8,2.51,3.11,4.23,5.75,4.27c-2.18,1.72-4.88,2.64-7.65,2.63
	C9.96,33.5,9.47,33.47,8.98,33.42L8.98,33.42z"/>
</svg>
