<?xml version="1.0" standalone="no"?>
<!DOCTYPE svg PUBLIC "-//W3C//DTD SVG 1.1//EN" "http://www.w3.org/Graphics/SVG/1.1/DTD/svg11.dtd" >
<svg xmlns="http://www.w3.org/2000/svg">
<metadata>Generated by IcoMoon</metadata>
<defs>
<font id="icomoon" horiz-adv-x="1024">
<font-face units-per-em="1024" ascent="960" descent="-64" />
<missing-glyph horiz-adv-x="1024" />
<glyph unicode="&#x20;" horiz-adv-x="512" d="" />
<glyph unicode="&#xe900;" glyph-name="arrow" d="M501.973 95.787c188.587 0 341.333 152.747 341.333 341.333s-152.747 341.333-341.333 341.333-341.333-152.747-341.333-341.333 152.747-341.333 341.333-341.333zM430.72 570.24c-12.373 12.373-12.373 32.427 0 44.8 5.973 5.973 13.867 9.173 22.4 9.173s16.427-3.413 22.4-9.387l154.24-154.667c11.307-12.587 10.88-31.787-1.067-43.733l-156.587-157.013c-12.373-12.373-32.427-12.373-44.8 0s-12.373 32.427 0 44.8l134.4 132.907-130.987 133.12z" />
<glyph unicode="&#xe901;" glyph-name="arrow-btn" d="M170.667 405.333h518.4l-238.933-238.933 61.867-59.733 341.333 341.333-341.333 341.333-59.733-59.733 236.8-238.933h-518.4z" />
<glyph unicode="&#xe902;" glyph-name="bridge" d="M910.933 190.507c-21.973-20.48-56.747-20.48-78.72 0-34.347 31.147-87.467 31.147-121.6 0-21.973-20.48-56.747-20.48-78.72 0-34.347 31.147-87.467 31.147-121.6 0-21.973-20.48-56.747-20.48-78.72 0-34.347 31.147-87.467 31.147-121.6 0-21.973-20.48-56.747-20.48-78.72 0-34.347 31.147-87.467 31.147-121.6 0-21.973-20.48-56.747-20.48-78.72 0-7.040 4.907-16.853 3.413-21.973-3.413-4.267-5.973-3.84-13.867 1.067-19.2 33.28-31.147 85.973-31.147 119.253 0 21.973 20.48 56.747 20.48 78.72 0 34.347-31.147 87.467-31.147 121.6 0 21.973 20.48 56.747 20.48 78.72 0 34.347-31.147 87.467-31.147 121.6 0 21.973 20.48 56.747 20.48 78.72 0 34.347-31.147 87.467-31.147 121.6 0 21.973 20.48 56.747 20.48 78.72 0 34.347-31.147 87.467-31.147 121.6 0 21.973 20.48 56.747 20.48 78.72 0 5.333-4.907 11.307-8.747 17.28-11.947v39.253c-34.133 26.027-83.2 24.96-115.627-4.693zM1023.573 607.787v160.64h-1022.507v-31.147h18.347v-98.347h-18.347v-31.147h139.093v-23.893h-139.093v-364.373c15.36 5.333 32.64 1.707 44.16-9.6 10.88-9.6 27.307-9.6 38.187 0 2.56 2.347 6.4 4.693 8.533 7.253v71.893c0.427 93.867 78.293 169.813 174.72 170.24 96.213-0.427 174.293-76.373 174.72-170.24v-75.733c1.493-1.493 2.987-2.773 4.907-3.627 10.88-9.6 27.307-9.6 38.187 0 28.8 26.24 68.693 36.907 107.093 28.8v51.627c0.427 93.867 78.293 169.813 174.72 170.24 96.213-0.427 174.293-76.373 174.72-170.24v-51.627c28.373 6.4 57.813 2.133 82.773-11.307v356.693h-237.867v23.893h237.653zM141.653 638.933h-86.187v98.347h86.187v-98.347zM541.227 737.28h86.187v-98.347h-86.187v98.347zM420.693 737.28h86.187v-98.347h-86.187v98.347zM298.88 737.28h86.187v-98.347h-86.4l0.213 98.347zM177.28 737.28h86.187v-98.347h-86.4l0.213 98.347zM749.013 583.893h-571.947l0.213 23.893h571.733v-23.893zM749.013 638.933h-86.187v98.347h86.187v-98.347zM992.427 737.28v-98.347h-85.973v98.347h85.973zM784.64 638.933v98.347h86.187v-98.347h-86.187zM910.507 131.84c-21.973-20.48-56.747-20.48-78.72 0-34.347 31.147-87.467 31.147-121.6 0-21.973-20.48-56.747-20.48-78.72 0-34.347 31.147-87.467 31.147-121.6 0-21.973-20.48-56.747-20.48-78.72 0-34.347 31.147-87.467 31.147-121.6 0-21.973-20.48-56.747-20.48-78.72 0-34.347 31.147-87.467 31.147-121.6 0-21.973-20.48-56.747-20.48-78.72 0-5.76 6.4-15.787 6.827-22.187 1.067s-7.040-15.36-1.067-21.76c0.853-0.853 1.493-1.493 2.56-2.133 34.347-31.147 87.467-31.147 121.6 0 21.973 20.48 56.747 20.48 78.72 0 34.347-31.147 87.467-31.147 121.6 0 21.973 20.48 56.747 20.48 78.72 0 34.347-31.147 87.467-31.147 121.6 0 21.973 20.48 56.747 20.48 78.72 0 34.347-31.147 87.467-31.147 121.6 0 21.973 20.48 56.747 20.48 78.72 0 34.347-31.147 87.467-31.147 121.6 0 21.973 20.48 56.747 20.48 78.72 0 4.693-4.267 10.027-7.893 15.36-11.093v37.973c-34.347 26.667-83.84 25.6-116.267-4.053z" />
<glyph unicode="&#xe903;" glyph-name="bullets" d="M349.44 685.653c-22.187 22.613-22.187 59.093 0 81.707 10.667 10.88 25.173 16.853 40.32 16.853 15.36 0 29.867-6.187 40.747-17.067l279.253-282.453c20.693-22.827 19.84-57.813-1.707-79.573l-283.307-286.72c-22.4-22.613-58.667-22.613-81.067 0s-22.4 59.093 0 81.707l243.413 242.56-237.653 242.987z" />
<glyph unicode="&#xe904;" glyph-name="data" d="M664.107 576.427c0 13.013-0.853 25.813-2.347 38.613-0.213 1.067-0.427 2.347-0.64 3.413-1.493-0.213-2.987-0.213-4.693-0.213-4.907-0.427-9.813-1.28-14.72-2.133-5.76-0.853-11.307-1.707-17.067-2.987-4.907-1.067-9.6-2.347-14.293-3.413-5.547-1.28-10.88-2.773-16.213-4.48-4.693-1.493-9.387-3.2-14.080-4.693-5.12-1.92-10.453-3.84-15.36-5.973-4.48-1.92-8.96-3.84-13.44-5.973-4.907-2.347-9.813-4.693-14.72-7.253-4.267-2.347-8.533-4.693-12.8-7.253-3.413-2.133-6.827-4.267-10.24-6.4h150.187c0 2.987 0.427 5.973 0.427 8.747zM619.307 413.013c2.347 4.053 4.693 8.107 7.040 12.16 2.56 4.907 4.907 10.24 7.253 15.573 1.92 4.053 3.84 8.107 5.547 12.373h-235.733c-1.92-3.413-4.053-6.827-5.973-10.24-2.56-5.12-4.907-10.24-7.253-15.36-1.92-4.267-4.053-8.32-5.76-12.587-0.427-1.067-0.853-2.347-1.28-3.413h235.093l1.067 1.493zM306.56 250.24c-1.493 13.653-2.347 27.307-2.347 40.96 0 12.587 0.64 25.173 1.92 37.547 0.427 4.267 1.28 8.107 1.707 12.373 1.067 8.107 2.133 16.213 3.627 24.107 1.067 4.907 2.347 9.6 3.413 14.293 1.707 7.040 3.413 14.293 5.547 21.12 1.493 4.907 3.413 9.813 5.12 14.72 2.347 6.4 4.48 13.013 7.040 19.413 2.133 4.907 4.267 9.813 6.613 14.507 2.773 5.973 5.547 12.16 8.533 17.92 2.56 4.693 5.333 9.387 7.893 14.080 3.2 5.547 6.613 11.307 10.24 16.64 2.987 4.693 6.187 8.96 9.387 13.44 3.84 5.333 7.467 10.453 11.52 15.573 3.413 4.267 7.040 8.533 10.453 12.587 4.267 4.907 8.533 9.813 12.8 14.507 3.84 4.053 7.68 7.893 11.52 11.52 4.693 4.48 9.387 8.96 14.293 13.227 4.053 3.627 8.32 7.040 12.587 10.453 5.12 4.053 10.24 7.893 15.573 11.947 4.267 3.2 8.747 6.4 13.227 9.387 5.547 3.627 11.093 7.040 16.853 10.453 4.693 2.773 9.387 5.547 14.080 8.107 5.973 3.2 11.947 6.187 17.92 8.96 4.907 2.347 9.6 4.693 14.507 6.827 6.187 2.773 12.8 4.907 19.2 7.253 4.907 1.707 9.813 3.627 15.147 5.333 6.827 2.133 13.653 3.84 20.48 5.547 4.907 1.28 9.813 2.773 15.147 3.84 7.253 1.493 14.72 2.773 22.4 3.84 4.907 0.853 9.6 1.707 14.507 2.347 0.853 0 1.493 0.213 2.133 0.427-10.453 33.493-26.24 65.28-46.72 93.867l139.733 138.667h140.587c15.36 0 27.733 12.373 27.733 27.52s-12.373 27.52-27.733 27.52v0h-152.107c-7.253 0-14.507-2.987-19.627-8.107l-144.853-143.573c-129.493 128.64-339.627 128.853-469.333 0.213s-129.707-336.853-0.213-465.493c56.107-55.68 130.56-89.6 209.707-95.573-0.213 0.213 0 1.067-0.213 1.707zM359.893 291.413c0-12.8 0.853-25.813 2.56-38.613 0.213-1.28 0.427-2.347 0.64-3.627 1.493 0.213 3.2 0.213 4.693 0.427 4.907 0.427 9.813 1.28 14.507 2.133 5.76 0.853 11.52 1.707 17.28 2.987 4.907 1.067 9.6 2.133 14.293 3.413 5.547 1.493 10.88 2.773 16.427 4.48 4.693 1.493 9.387 2.987 13.867 4.693 5.333 1.92 10.453 3.84 15.573 5.973 4.48 1.92 8.96 3.84 13.44 5.973 4.907 2.347 9.813 4.693 14.72 7.467 4.267 2.347 8.533 4.693 12.8 7.040 1.493 0.853 2.987 1.92 4.48 2.773h-145.067c-0.213-1.92-0.213-3.627-0.213-5.12zM717.013 619.733c0-0.64 0-1.493 0.213-2.133 1.493-13.653 2.347-27.307 2.347-40.96 0-12.587-0.64-25.173-1.92-37.547-0.427-4.267-1.28-8.32-1.707-12.373-1.067-8.107-2.133-16.213-3.627-24.107-1.067-4.907-2.347-9.6-3.413-14.293-1.707-7.040-3.413-14.080-5.547-21.12-1.493-4.907-3.413-9.813-5.12-14.72-2.347-6.4-4.48-13.013-7.040-19.2-2.133-4.907-4.267-9.813-6.613-14.72-2.773-5.973-5.547-11.947-8.533-17.92-2.56-4.907-5.333-9.387-8.107-14.080-3.2-5.547-6.4-11.307-10.027-16.64-2.987-4.693-6.187-9.173-9.387-13.44-3.627-5.12-7.467-10.453-11.52-15.36-3.413-4.267-7.040-8.533-10.667-12.8-4.053-4.907-8.32-9.6-12.8-14.293-3.627-3.84-7.467-7.68-11.307-11.52-0.427-0.427-0.853-0.853-1.493-1.493-4.267-4.053-8.533-7.893-12.8-11.947-4.267-3.84-8.32-7.253-12.587-10.667-4.907-4.053-10.027-7.893-15.36-11.52-4.48-3.2-8.96-6.4-13.653-9.6-5.333-3.627-10.88-7.040-16.427-10.24-4.693-2.773-9.387-5.547-14.293-8.32-5.76-3.2-11.733-5.973-17.707-8.747-4.907-2.347-9.813-4.693-14.72-6.827-6.187-2.56-12.587-4.907-18.987-7.253-5.12-1.92-10.027-3.84-15.147-5.333-6.613-2.133-13.653-3.84-20.48-5.547-5.12-1.28-10.027-2.773-15.147-3.84-7.467-1.493-14.933-2.773-22.4-3.84-4.693-0.853-9.387-1.707-14.293-2.347-0.853 0-1.493-0.213-2.347-0.427 7.040-22.613 16.64-44.373 28.373-65.067l-139.093-137.813h-140.373c-15.36 0-27.733-12.373-27.733-27.52s12.373-27.52 27.733-27.52v0h152.107c7.253 0 14.507 2.987 19.627 8.107l139.733 138.667c115.84-141.013 324.907-162.133 466.987-47.147s163.413 322.347 47.573 463.36c-57.387 69.76-141.44 113.28-232.32 120.107v0zM562.133 340.48c3.413 3.413 7.040 6.613 10.24 10.027 3.84 4.053 7.467 8.107 10.88 12.16 3.2 3.627 6.187 7.253 9.173 10.88 0.213 0.213 0.427 0.64 0.64 0.853h-222.080c-0.64-2.347-1.28-4.907-1.92-7.467-1.067-4.053-2.133-8.107-2.987-12.373-1.28-6.827-2.347-13.867-3.2-20.907 0-0.427 0-0.64-0.213-1.067h191.147c2.773 2.987 5.547 5.333 8.32 7.893zM654.72 500.48c1.067 4.053 2.133 8.107 2.987 12.373 1.28 5.973 1.92 12.16 2.773 18.347h-194.56c-1.493-1.28-2.987-2.56-4.267-4.053-3.413-3.413-7.040-6.613-10.24-10.24-3.84-4.053-7.467-8.107-10.88-12.16-3.2-3.627-6.187-7.253-9.173-10.88-1.067-1.493-2.133-2.987-3.2-4.48h223.787c0.853 3.84 1.707 7.467 2.773 11.093zM123.307 90.027c-15.36 0-27.733-12.373-27.733-27.52s12.373-27.52 27.733-27.52h135.040c15.36 0 27.733 12.373 27.733 27.52s-12.373 27.52-27.733 27.52v0h-135.040zM883.2 866.56h-135.040c-15.36 0-27.733-12.373-27.733-27.52s12.373-27.52 27.733-27.52h135.040c15.36 0 27.733 12.373 27.733 27.52s-12.373 27.52-27.733 27.52z" />
<glyph unicode="&#xe905;" glyph-name="email" d="M501.931 401.6c3.060-2.054 6.827-3.279 10.88-3.279s7.82 1.224 10.951 3.324l-0.071-0.045 480.768 418.667c-9.643 7.402-21.882 11.862-35.163 11.862-0.103 0-0.206 0-0.309-0.001h-913.968c-0.351 0.008-0.764 0.012-1.178 0.012-13.378 0-25.7-4.522-35.521-12.122l0.134 0.099 371.072-321.984zM0.171 180.907l350.251 305.515-350.251 303.531c-0.112-1.202-0.175-2.599-0.175-4.011s0.064-2.809 0.188-4.188l-0.013 0.178zM548.544 376.235c-9.944-7.307-22.43-11.694-35.94-11.694-0.22 0-0.439 0.001-0.658 0.003h0.033c-9.686 0.006-18.809 2.413-26.807 6.657l0.311-0.15c-3.009 1.539-5.58 3.147-7.998 4.948l0.147-0.105-100.715 87.467-376.747-328.043v-21.205c1.366-27.975 24.38-50.14 52.57-50.14 0.801 0 1.598 0.018 2.39 0.053l-0.113-0.004h920.896c26.341 2.059 47.047 23.527 47.891 50.009l0.002 0.082v21.547l-375.829 327.040zM1023.808 790.272l-350.229-304.363 350.229-304.192v600.213c0.117 1.25 0.183 2.702 0.183 4.171s-0.067 2.921-0.197 4.355l0.014-0.185z" />
<glyph unicode="&#xe906;" glyph-name="facebook" d="M1023.36 448.213c-1.707 284.587-232.32 513.707-514.987 512s-510.72-233.813-509.013-518.4c1.493-252.16 184.32-466.347 432-505.813v362.453h-129.92v149.76h129.92v114.347c0 129.92 76.373 201.6 193.28 201.6 38.4-0.64 76.8-3.84 114.56-10.027v-127.573h-64.64c-40.747 5.333-77.867-23.68-83.2-64.427-0.64-5.547-0.853-10.88-0.213-16.427v-97.28h142.080l-22.613-149.76h-119.253v-362.027c249.387 40.32 432.427 257.28 432 511.573z" />
<glyph unicode="&#xe907;" glyph-name="farming" d="M144.64 493.227v-89.387h22.187v89.387c68.267 4.267 122.453 61.013 122.453 130.347v2.773c-65.707 0-119.68-48.427-129.28-111.36h-8.533c-9.387 62.933-63.573 111.36-129.28 111.36v-2.773c0-69.333 54.187-126.080 122.453-130.347zM500.693 493.227v-89.387h22.187v89.387c68.267 4.267 122.453 61.013 122.453 130.347v2.773c-65.707 0-119.68-48.427-129.28-111.36h-8.32c-9.387 62.933-63.573 111.36-129.28 111.36v-2.773c0-69.333 53.973-126.080 122.24-130.347zM856.96 493.227v-89.387h22.187v89.387c68.267 4.267 122.453 61.013 122.453 130.347v2.773c-65.707 0-119.68-48.427-129.28-111.36h-8.747c-9.387 62.933-63.573 111.36-129.28 111.36v-2.773c0.427-69.333 54.4-126.080 122.667-130.347zM968.32 305.067v-0.213c0-19.2-15.573-34.773-34.773-34.773h-130.773c-19.2 0-34.773 15.573-34.773 34.773v0c0 7.253-6.187 13.013-13.44 12.373-8.747-0.853-18.773-1.493-31.147-1.493-51.2 0-66.133 10.027-96.213 16-7.68 1.493-15.147-4.267-15.147-12.16v-14.507c0-19.2-15.573-34.773-34.773-34.773h-130.773c-19.2 0-34.773 15.573-34.773 34.773v0c0 6.187-4.693 11.52-10.88 12.16-41.6 4.907-52.48 18.56-111.573 18.56-8.107 0-15.36-0.213-21.76-0.64s-11.52-5.973-11.52-12.373v-17.92c0-19.2-15.573-34.773-34.773-34.773h-130.773c-19.2 0-34.773 15.573-34.773 34.773v15.147c0 5.973-4.267 11.307-10.027 12.373-8.96 1.707-19.413 2.987-32.427 3.413-7.253 0.213-13.227-5.547-13.227-12.587v-374.4c0-6.827 5.547-12.587 12.587-12.587h999.040c6.827 0 12.587 5.547 12.587 12.587v354.56c0 6.827-5.547 12.373-12.16 12.587-10.24 0.213-20.907 0.853-29.867 1.707-7.467 0.427-13.867-5.333-13.867-12.587zM33.493 14.080c-12.373 0-22.187 10.027-22.187 22.187s10.027 22.187 22.187 22.187 22.187-10.027 22.187-22.187-10.027-22.187-22.187-22.187zM110.080 75.307l-19.2-11.307c-10.24 17.493-14.507 34.773-12.587 51.413 0.853 7.040 2.347 11.093 4.907 17.067 1.707 4.053 3.84 9.6 6.827 18.56 7.040 20.907 10.24 30.507 10.667 41.387 0.427 12.587-2.773 25.813-9.813 38.827l19.627 10.453c8.747-16.64 13.013-33.493 12.373-50.133-0.427-14.080-4.48-26.027-11.733-47.573-3.2-9.6-5.547-15.36-7.253-19.84-2.133-5.547-2.987-7.253-3.413-11.307-1.28-11.52 1.92-24.107 9.6-37.547zM154.24 75.307l-19.2-11.307c-10.24 17.493-14.507 34.773-12.587 51.413 0.853 7.040 2.347 11.093 4.907 17.067 1.707 4.053 3.84 9.6 6.827 18.56 6.827 20.267 10.24 30.507 10.667 41.387 0.427 12.587-2.773 25.813-9.813 38.827l19.627 10.453c8.747-16.64 13.013-33.493 12.373-50.133-0.427-14.080-4.48-26.027-11.733-47.573-3.2-9.6-5.547-15.36-7.253-19.627-2.133-5.547-2.987-7.253-3.413-11.307-1.493-11.733 1.92-24.32 9.6-37.76zM199.893 144.213c-3.2-9.6-5.547-15.36-7.253-19.84-2.133-5.547-2.987-7.253-3.413-11.307-1.28-11.733 1.92-24.32 9.6-37.547l-19.2-11.307c-10.24 17.493-14.507 34.773-12.587 51.413 0.853 7.040 2.347 11.093 4.907 17.067 1.707 4.053 3.84 9.6 6.827 18.56 7.040 20.907 10.24 30.507 10.667 41.387 0.427 12.587-2.773 25.813-9.813 38.827l19.627 10.453c8.747-16.64 13.013-33.493 12.373-50.133-0.64-14.080-4.693-26.027-11.733-47.573zM344.96 14.080c-12.373 0-22.187 10.027-22.187 22.187s10.027 22.187 22.187 22.187c12.373 0 22.187-10.027 22.187-22.187s-9.813-22.187-22.187-22.187zM466.347 75.307l-19.2-11.307c-10.24 17.493-14.507 34.773-12.587 51.413 0.853 7.040 2.347 11.093 4.907 17.067 1.707 4.053 3.84 9.6 6.827 18.56 7.040 20.907 10.24 30.507 10.667 41.387 0.427 12.587-2.773 25.813-9.813 38.827l19.627 10.453c8.747-16.64 13.013-33.493 12.373-50.133-0.427-14.080-4.48-26.027-11.733-47.573-3.2-9.6-5.547-15.36-7.253-19.84-2.133-5.547-2.987-7.253-3.413-11.307-1.493-11.52 1.92-24.107 9.6-37.547zM510.507 75.307l-19.2-11.307c-10.24 17.493-14.507 34.773-12.587 51.413 0.853 7.040 2.347 11.093 4.907 17.067 1.707 4.053 3.84 9.6 6.827 18.56 6.827 20.267 10.24 30.507 10.667 41.387 0.427 12.587-2.773 25.813-9.813 38.827l19.627 10.453c8.747-16.64 13.013-33.493 12.373-50.133-0.427-14.080-4.48-26.027-11.733-47.573-3.2-9.6-5.547-15.36-7.253-19.627-2.133-5.547-2.987-7.253-3.413-11.307-1.493-11.733 1.707-24.32 9.6-37.76zM555.947 144.213c-3.2-9.6-5.547-15.36-7.253-19.84-2.133-5.547-2.987-7.253-3.413-11.307-1.28-11.733 1.92-24.32 9.6-37.547l-19.2-11.307c-10.24 17.493-14.507 34.773-12.587 51.413 0.853 7.040 2.347 11.093 4.907 17.067 1.707 4.053 3.84 9.6 6.827 18.56 7.040 20.907 10.24 30.507 10.667 41.387 0.427 12.587-2.773 25.813-9.813 38.827l19.627 10.453c8.747-16.64 13.013-33.493 12.373-50.133-0.427-14.080-4.48-26.027-11.733-47.573zM667.733 170.027c-12.373 0-22.187 10.027-22.187 22.187s10.027 22.187 22.187 22.187 22.187-10.027 22.187-22.187-9.813-22.187-22.187-22.187zM822.613 75.307l-19.2-11.307c-10.24 17.493-14.507 34.773-12.587 51.413 0.853 7.040 2.347 11.093 4.907 17.067 1.707 4.053 3.84 9.6 6.827 18.56 7.040 20.907 10.24 30.507 10.667 41.387 0.427 12.587-2.773 25.813-9.813 38.827l19.627 10.453c8.747-16.64 13.013-33.493 12.373-50.133-0.427-14.080-4.48-26.027-11.733-47.573-3.2-9.6-5.547-15.36-7.253-19.84-2.133-5.547-2.987-7.253-3.413-11.307-1.493-11.52 1.707-24.107 9.6-37.547zM866.56 75.307l-19.2-11.307c-10.24 17.493-14.507 34.773-12.587 51.413 0.853 7.040 2.347 11.093 4.907 17.067 1.707 4.053 3.84 9.6 6.827 18.56 6.827 20.267 10.24 30.507 10.667 41.387 0.427 12.587-2.773 25.813-9.813 38.827l19.627 10.453c8.747-16.64 13.013-33.493 12.373-50.133-0.427-14.080-4.48-26.027-11.733-47.573-3.2-9.6-5.547-15.36-7.253-19.627-2.133-5.547-2.987-7.253-3.413-11.307-1.28-11.733 1.92-24.32 9.6-37.76zM911.147 75.307l-19.2-11.307c-10.24 17.493-14.507 34.773-12.587 51.413 0.853 7.040 2.347 11.093 4.907 17.067 1.707 4.053 3.84 9.6 6.827 18.56 7.040 20.907 10.24 30.507 10.667 41.387 0.427 12.587-2.773 25.813-9.813 38.827l19.627 10.453c8.747-16.64 13.013-33.493 12.373-50.133-0.427-14.080-4.48-26.027-11.733-47.573-3.2-9.6-5.547-15.36-7.253-19.84-2.133-5.547-2.987-7.253-3.413-11.307-1.493-11.52 1.92-24.107 9.6-37.547zM935.040 25.173c-12.373 0-22.187 10.027-22.187 22.187s10.027 22.187 22.187 22.187 22.187-10.027 22.187-22.187-10.027-22.187-22.187-22.187zM578.773 837.76c0-36.878-29.895-66.773-66.773-66.773s-66.773 29.895-66.773 66.773c0 36.878 29.895 66.773 66.773 66.773s66.773-29.895 66.773-66.773zM500.907 960.213h22.187v-33.493h-22.187v33.493zM500.907 748.8h22.187v-33.493h-22.187v33.493zM600.96 848.853h33.493v-22.187h-33.493v22.187zM389.547 848.853h33.493v-22.187h-33.493v22.187zM566.997 908.605l23.683 23.683 15.688-15.688-23.683-23.683-15.688 15.688zM417.437 759.056l23.686 23.68 15.686-15.69-23.686-23.68-15.686 15.69zM566.998 766.903l15.688 15.688 23.683-23.683-15.688-15.688-23.683 23.683zM417.456 916.452l15.686 15.69 23.686-23.68-15.686-15.69-23.686 23.68zM478.72 292.267h66.773c24.533 0 44.587 19.84 44.587 44.587v0c0 24.533-19.84 44.587-44.587 44.587h-66.773c-24.533 0-44.587-19.84-44.587-44.587v0c0-24.533 19.84-44.587 44.587-44.587zM534.187 347.947v0c6.187 0 11.093-4.907 11.093-11.093v0c0-6.187-4.907-11.093-11.093-11.093v0c-6.187 0-11.093 4.907-11.093 11.093v0c0 6.187 5.12 11.093 11.093 11.093zM478.72 359.040v0c6.187 0 11.093-4.907 11.093-11.093v0c0-6.187-4.907-11.093-11.093-11.093v0c-6.187 0-11.093 4.907-11.093 11.093v0c-0.213 6.187 4.907 11.093 11.093 11.093zM122.453 292.267h66.773c24.533 0 44.587 19.84 44.587 44.587v0c0 24.533-19.84 44.587-44.587 44.587h-66.773c-24.533 0-44.587-19.84-44.587-44.587v0c0-24.533 20.053-44.587 44.587-44.587zM178.133 347.947v0c6.187 0 11.093-4.907 11.093-11.093v0c0-6.187-4.907-11.093-11.093-11.093v0c-6.187 0-11.093 4.907-11.093 11.093v0c0 6.187 4.907 11.093 11.093 11.093zM122.453 359.040v0c6.187 0 11.093-4.907 11.093-11.093v0c0-6.187-4.907-11.093-11.093-11.093v0c-6.187 0-11.093 4.907-11.093 11.093v0c0 6.187 4.907 11.093 11.093 11.093zM834.773 292.267h66.773c24.533 0 44.587 19.84 44.587 44.587v0c0 24.533-19.84 44.587-44.587 44.587h-66.773c-24.533 0-44.587-19.84-44.587-44.587v0c0-24.533 20.053-44.587 44.587-44.587zM890.453 347.947v0c6.187 0 11.093-4.907 11.093-11.093v0c0-6.187-4.907-11.093-11.093-11.093v0c-6.187 0-11.093 4.907-11.093 11.093v0c0 6.187 4.907 11.093 11.093 11.093zM834.773 359.040v0c6.187 0 11.093-4.907 11.093-11.093v0c0-6.187-4.907-11.093-11.093-11.093v0c-6.187 0-11.093 4.907-11.093 11.093v0c0 6.187 4.907 11.093 11.093 11.093z" />
<glyph unicode="&#xe908;" glyph-name="hydro" d="M959.36 231.893c-28.16 0.427-48.853-13.227-62.933-37.76-3.627-6.4-8.747-12.16-13.44-17.92-1.067-1.28-2.987-1.92-5.12-3.2 0 108.16 0 215.467 0 323.2 16.213 0 32 0 47.787 0 11.307 0 17.92 6.4 17.92 17.707 0 37.973 0.427 75.947 0 113.92-0.427 42.027-33.707 77.227-75.52 78.507-36.053 1.28-72.107 1.28-107.947 0-43.947-1.493-76.8-37.12-76.8-81.067 0-36.267 0-72.747 0-109.013 0-14.080 5.973-20.053 20.053-20.053 15.147 0 30.293 0 45.867 0 0.213-2.133 0.213-3.627 0.213-4.907 0-85.12 0-170.24 0-255.36 0-3.413-0.853-4.907-4.48-5.76-20.267-5.12-35.2-17.28-45.44-35.627-1.707-2.987-3.2-5.973-5.333-8.747-17.92-24.32-51.84-21.76-65.92 4.693-0.853 1.493-1.707 3.2-2.56 4.693-11.093 18.56-26.88 30.933-48.213 35.2-4.267 0.853-5.76 2.56-5.76 7.040 0.213 84.267 0 168.533 0.213 252.587 0 1.92 0.213 3.84 0.213 6.187 15.573 0 30.72 0 45.867 0 14.293 0 20.48 5.973 20.48 20.48 0 35.84 0 71.467 0 107.307 0 46.72-34.347 82.133-81.067 82.773-32.853 0.427-65.493 0.427-98.347 0-45.653-0.64-80.853-34.987-81.28-79.787-0.427-37.547-0.213-75.093 0-112.853 0-11.093 6.827-17.707 17.92-17.92 14.080 0 28.16 0 42.24 0 1.92 0 3.84 0 5.973 0 0-107.52 0-214.187 0-321.707-1.707 1.067-2.987 1.28-3.627 2.347-4.48 5.76-9.173 11.52-13.013 17.707-14.72 24.32-36.053 37.973-64.427 37.547-28.16-0.213-48.853-14.080-62.080-39.040-1.92-3.413-4.053-6.827-6.613-9.813-6.4-7.467-14.293-12.16-24.533-13.653 0 109.013 0 217.813 0 326.827 16 0 31.36 0 46.933 0 12.587 0 18.987 6.4 18.987 18.987 0 36.693 0 73.387 0 110.080-0.213 44.587-33.493 80-77.867 81.28-34.56 0.853-69.12 0.853-103.68 0-45.44-1.28-78.507-36.053-78.72-81.493-0.213-36.693 0-73.387 0-110.080 0-12.373 6.4-18.773 18.56-18.773 13.867 0 27.733 0 41.6 0 1.92 0 3.84 0 5.973 0 0-3.2 0-5.547 0-7.893 0-61.44 0-122.88 0-184.32 0-23.68 0-47.36-0.213-71.040 0-1.92-1.067-5.12-2.347-5.547-17.707-7.253-29.653-20.267-38.613-36.907-7.253-13.867-19.413-21.333-34.987-21.547-15.573 0-26.88 7.893-34.133 21.76-4.907 9.173-14.293 12.373-22.827 7.893-8.107-4.267-10.667-13.867-6.4-23.040 16.64-34.133 56.96-48.853 91.733-33.493 16.853 7.467 28.8 19.84 37.333 36.053 13.227 25.173 45.867 28.373 64 6.4 2.773-3.2 4.907-7.040 7.040-10.88 17.067-32 53.973-45.867 87.68-32.853 18.56 7.040 31.36 20.267 40.533 37.76 12.373 23.467 42.453 27.947 61.227 8.96 3.627-3.84 6.827-8.533 9.173-13.227 18.347-34.347 57.813-47.787 93.013-31.36 16.427 7.68 27.52 20.267 36.053 36.053 11.947 22.613 40.96 27.52 59.52 9.813 4.267-4.053 7.893-9.387 10.667-14.72 16.213-29.653 48-43.947 80.427-35.413 21.547 5.76 37.12 19.2 47.36 39.040 5.333 10.24 13.013 17.707 24.32 20.48 17.92 4.693 35.413-3.84 45.653-20.907 4.907-8.107 10.027-16.427 17.067-22.827 33.28-30.72 88.107-21.973 109.653 22.187 6.827 13.867 17.493 22.4 33.28 22.613 16 0.213 27.093-7.68 34.56-21.76 4.907-9.173 14.293-12.373 22.827-7.68 8.107 4.48 10.88 13.867 6.187 22.827-13.013 24.747-33.707 38.827-61.867 39.040zM63.573 858.027c-15.573 0-31.36 0.213-46.933 0-9.387 0-16.213-6.4-17.067-14.933s4.693-16 13.867-17.707c3.2-0.64 6.4-0.853 9.6-0.853 146.773 0 293.547 0 440.32 0 177.067 0 353.92 0 530.987 0 3.413 0 6.827 0.213 10.24 0.64 6.4 0.853 11.093 4.267 13.44 10.453 4.267 11.093-3.627 22.187-16.427 22.4-20.053 0.213-39.893 0-59.947 0-2.133 0-4.053 0.213-6.4 0.213 0 23.040 0 45.44 0 68.693 2.56 0 4.693 0 6.827 0 18.987 0 37.76 0 56.747 0 2.56 0 5.12 0.213 7.467 0.64 9.387 1.92 14.933 11.52 11.947 20.693-2.347 8.107-8.32 11.733-18.987 11.733-326.4 0-652.8 0-979.413 0-1.707 0-3.627 0-5.333 0-7.68-0.64-13.867-6.613-14.933-14.080-1.067-7.253 3.2-14.933 10.24-17.28 2.987-1.067 6.4-1.28 9.6-1.28 16.64-0.213 33.067-0.213 49.707 0 4.267 0 5.973-1.067 5.973-5.76-0.213-19.413 0-38.613-0.213-58.027 0-1.707-0.213-3.413-0.427-5.547-4.053 0-7.467 0-10.88 0zM818.347 926.72c27.947 0 55.68 0 83.627 0 0-22.827 0-45.44 0-68.48-27.947 0-55.68 0-83.627 0 0 22.827 0 45.44 0 68.48zM698.88 926.507c28.587 0 56.96 0 85.973 0 0-23.040 0-45.44 0-68.267-28.587 0-57.173 0-85.973 0 0 22.613 0 45.227 0 68.267zM581.333 926.72c28.16 0 55.893 0 83.84 0 0-22.827 0-45.653 0-68.48-27.947 0-55.68 0-83.84 0 0 23.040 0 45.44 0 68.48zM462.080 926.72c28.587 0 56.96 0 85.973 0 0-22.613 0-45.227 0-68.48-28.8 0-57.173 0-85.973 0 0 22.613 0 45.44 0 68.48zM348.587 927.147c25.813-0.213 51.84 0 77.653-0.213 0.427 0 1.067-0.213 2.133-0.427 0-22.827 0-45.227 0-68.267-27.947 0-55.68 0-83.84 0-0.213 1.707-0.427 3.2-0.427 4.693 0 19.627 0 39.467 0 59.093 0 3.413 0.64 5.12 4.48 5.12zM227.413 926.72c27.947 0 55.68 0 83.84 0 0-22.827 0-45.227 0-68.267-27.947 0-55.68 0-83.84 0 0 22.613 0 45.227 0 68.267zM107.733 926.72c28.8 0 57.173 0 85.973 0 0-23.040 0-45.44 0-68.267-28.587 0-57.173 0-85.973 0 0 22.613 0 45.227 0 68.267zM958.933 132.053c-27.733 0.213-48.427-13.013-62.080-37.333-1.707-3.2-3.2-6.4-5.333-9.387-14.293-21.333-44.587-21.973-59.733-1.493-2.56 3.2-4.267 7.040-6.4 10.667-14.507 24.107-35.627 37.76-64 37.547s-49.28-14.080-62.507-39.040c-1.493-2.773-3.2-5.76-5.12-8.32-17.92-23.253-51.2-20.48-65.067 5.547-0.64 1.28-1.28 2.56-2.133 3.84-14.507 24.533-35.627 38.187-64.213 38.187-28.587-0.213-49.493-14.080-62.933-39.467-1.707-3.2-3.627-6.187-5.973-8.96-18.347-21.973-50.56-18.773-64 6.4-1.067 2.133-2.133 4.267-3.413 6.187-14.72 23.253-35.627 36.267-63.147 35.84-28.16-0.213-48.853-14.080-62.080-39.040-1.28-2.347-2.56-4.693-4.267-6.827-17.707-24.747-51.84-22.613-66.347 4.267-1.067 1.92-2.133 3.84-3.2 5.76-20.693 34.56-63.787 46.293-97.707 26.667-12.8-7.253-21.76-18.133-28.587-30.933-7.467-14.293-19.627-22.827-36.053-22.827-15.787 0-27.093 8.107-34.347 22.187-4.48 8.747-13.867 11.733-21.973 7.68-8.32-4.053-11.093-13.653-7.040-22.613 15.147-32.427 53.12-48.213 87.040-36.053 19.413 7.040 33.067 20.48 42.667 38.613 12.16 23.040 41.173 27.733 59.947 9.813 4.48-4.267 7.893-9.813 11.093-15.147 13.653-23.893 34.347-36.267 65.28-37.547 4.693 1.067 13.013 1.92 20.693 4.48 19.2 6.4 32.64 19.84 42.027 37.76 13.44 25.387 46.293 28.587 64.427 6.187 2.56-3.2 4.693-6.827 6.613-10.453 17.707-33.067 55.893-46.72 90.24-32.213 17.28 7.253 29.44 20.053 38.187 36.693 12.587 24.107 43.093 28.16 61.867 8.32 3.627-3.84 6.4-8.32 8.747-12.8 17.92-33.28 56.32-46.933 90.667-32 17.067 7.467 29.227 20.053 37.76 36.48 12.8 24.32 43.52 28.373 62.080 8.107 3.413-3.84 6.187-8.32 8.747-13.013 14.933-27.947 45.013-42.453 75.947-36.053 23.040 4.693 39.253 18.773 49.493 39.893 6.827 13.867 17.707 21.76 33.28 21.76 15.573 0.213 26.453-7.68 33.707-21.12 5.12-9.6 14.507-13.013 23.040-8.32 8.32 4.48 10.88 14.080 5.973 23.467-13.013 24.533-33.707 38.4-61.867 38.613zM904.533 6.187c-4.267-5.333-7.253-11.52-10.88-17.493-7.467-12.8-18.347-19.84-33.067-19.627-14.507 0.213-25.173 7.467-32.427 20.053-1.28 2.133-2.347 4.48-3.627 6.613-14.933 23.893-36.267 36.907-64.64 36.267-27.947-0.64-48-14.507-61.013-38.827-1.707-3.2-3.627-6.4-5.76-9.173-18.133-22.4-50.773-19.413-64.427 5.76-0.853 1.493-1.707 3.2-2.56 4.693-14.72 24.32-35.84 37.76-64.427 37.333-28.373-0.427-48.64-14.293-61.867-39.253-1.92-3.413-4.053-6.827-6.613-9.813-18.347-21.333-50.133-17.92-63.36 6.827-0.853 1.707-1.707 3.627-2.773 5.333-14.933 24.107-36.053 37.547-64.64 36.907-28.16-0.64-48.213-14.507-61.44-39.040-1.92-3.413-4.053-6.827-6.613-9.813-18.56-21.547-50.133-17.92-63.573 7.040-1.067 1.92-2.133 3.84-3.2 5.76-17.067 28.8-50.347 42.667-81.707 33.707-20.267-5.76-34.56-18.56-44.16-37.12-7.467-14.507-19.413-23.253-36.053-23.467-16.213-0.213-27.307 8.107-34.773 22.4-4.48 8.533-13.867 11.52-22.187 7.253-8.107-4.053-10.88-13.653-6.827-22.4 14.72-31.787 51.2-47.787 84.693-37.12 20.48 6.613 34.773 20.267 44.8 39.040 12.587 24.107 43.093 28.16 61.867 8.533 3.627-3.84 6.4-8.32 8.747-12.8 17.28-32.427 54.613-46.507 88.747-32.853 18.133 7.040 30.933 20.053 39.68 37.12 8.533 16.64 25.387 24.32 43.093 19.84 13.013-3.413 21.547-12.16 27.733-23.893 17.493-33.28 55.253-46.933 90.027-32.427 17.707 7.253 29.867 20.267 38.613 36.907 11.52 21.973 38.827 27.733 57.813 11.52 5.12-4.48 9.387-10.453 12.8-16.427 13.867-24.107 34.347-36.693 61.867-37.76 12.8 0 24.533 2.987 35.627 9.387 13.653 7.893 23.467 19.2 30.933 33.067 12.373 23.68 42.453 28.16 61.013 8.96 4.053-4.267 7.253-9.387 10.027-14.507 23.253-42.453 80.213-49.92 112.64-14.080 5.333 5.76 9.173 12.8 13.013 19.84 8.747 15.787 24.533 23.68 41.6 19.627 11.947-2.773 20.053-10.667 25.6-21.547 4.48-8.533 14.080-11.52 22.187-7.253 8.107 4.053 10.88 13.653 6.827 22.4-21.973 46.933-85.12 54.613-117.333 14.507zM20.053 738.347c163.2 0 326.187 0 489.387 0s326.187 0 489.387 0c1.92 0 4.053 0 5.973 0.213 8.533 1.28 14.507 7.893 14.507 16.213 0 8.533-6.187 15.36-14.933 16.427-3.627 0.427-7.253 0.427-10.667 0.427-104.32 0-208.427 0-312.747 0-219.733 0-439.253 0-658.987 0-3.627 0-7.68-0.427-11.093-1.493-8.96-2.773-13.44-12.587-10.027-21.333 2.56-7.253 8.533-10.453 19.2-10.453z" />
<glyph unicode="&#xe909;" glyph-name="industry" d="M162.133 600.96c2.56 4.907 4.907 9.813 4.907 14.72 2.56 7.253 7.467 14.72 14.933 17.067s14.933 2.347 22.4 0c14.933-7.253 29.867-9.813 45.013-9.813 39.893 0 74.88 24.533 89.813 61.013 4.907 12.16 17.493 17.067 29.867 14.72 10.027-2.347 22.4-4.907 32.427-4.907 74.88 0 134.827 58.667 134.827 131.84 0 75.733-59.947 134.4-134.827 134.4-72.32 0-132.267-53.76-134.827-124.587 0-12.16-10.027-21.973-22.4-21.973-49.92-2.347-89.813-46.507-89.813-95.36 0-4.907 0-7.253 0-12.16 0-7.253-2.56-14.72-7.467-19.627s-12.587-7.253-20.053-7.253c-2.56 0-4.907 0-7.467 0-29.867 0-52.48-21.973-52.48-51.413 0-2.347 0-4.907-2.56-7.253h72.32c13.013 0.213 22.827-7.253 25.387-19.413zM902.827 429.653l-113.493-87.893c-7.467-4.907-20.053-7.253-27.52-2.347-10.027 4.907-14.933 12.16-14.933 21.973v51.2c0 38.827-45.013 61.44-77.227 38.613l-155.093-109.227c-7.467-4.907-17.493-7.253-24.96-2.347-10.027 2.347-14.933 9.813-14.933 19.627l-6.4 79.787c-2.773 35.2-42.453 55.253-73.387 37.12l-217.173-127.147c-7.467-4.907-17.493-4.907-24.96 0s-12.587 12.16-12.587 21.973v164.907c0 26.24-21.76 47.573-48.64 47.573s-48.64-21.333-48.64-47.573v-552.107c0-26.24 21.76-47.573 48.64-47.573h889.813v456.107c0.427 39.68-46.72 62.080-78.507 37.333zM313.173 180.907c0-10.88-9.173-19.84-20.267-19.84h-71.893c-11.093 0-20.267 8.96-20.267 19.84v70.187c0 10.88 9.173 19.84 20.267 19.84h71.893c11.093 0 20.267-8.96 20.267-19.84v-70.187zM507.093 52.053c0-10.88-9.173-19.84-20.267-19.84h-71.893c-11.093 0-20.267 8.96-20.267 19.84v70.187c0 10.88 9.173 19.84 20.267 19.84h71.893c11.093 0 20.267-8.96 20.267-19.84v-70.187zM688.853 180.907c0-10.88-9.173-19.84-20.267-19.84h-71.893c-11.093 0-20.267 8.96-20.267 19.84v70.187c0 10.88 9.173 19.84 20.267 19.84h71.893c11.093 0 20.267-8.96 20.267-19.84v-70.187zM882.773 52.053c0-10.88-9.173-19.84-20.267-19.84h-71.893c-11.093 0-20.267 8.96-20.267 19.84v70.187c0 10.88 9.173 19.84 20.267 19.84h71.893c11.093 0 20.267-8.96 20.267-19.84v-70.187z" />
<glyph unicode="&#xe90a;" glyph-name="map" d="M471.893-43.093c-290.56 421.333-344.533 464.64-344.533 619.307 0 212.053 171.947 384 384 384s384-171.947 384-384c0-154.88-53.973-198.187-344.533-619.307-15.147-21.76-45.013-27.307-66.773-12.16-4.693 3.413-8.96 7.467-12.16 12.16v0zM511.36 416.213c88.32 0 160 71.68 160 160s-71.68 160-160 160-160-71.68-160-160 71.68-160 160-160z" />
<glyph unicode="&#xe90b;" glyph-name="not-suitable" d="M501.973 688.853c-1.067-0.853-1.92-1.92-2.987-2.773-107.947-108.587-215.893-216.96-323.84-325.547-2.56-2.347-4.48-5.333-6.613-8.107 0-1.92 0-3.627 0-5.547 1.707-3.413 4.053-5.973 7.467-7.467 1.92 0 3.627 0 5.547 0 2.347 1.92 4.907 3.413 7.040 5.547 108.373 108.8 216.747 217.6 325.12 326.4 1.067 1.067 1.92 1.92 2.773 2.987 3.2 4.267 2.773 9.813-0.853 13.44-3.84 4.053-9.6 4.267-13.653 1.067zM217.387 432.213c8.747 8.747 17.493 17.707 26.453 26.453 1.92 1.92 2.347 3.2 0.853 5.76-11.733 22.827-15.147 47.147-10.24 72.32 14.293 73.387 94.080 112 160.427 77.653 1.92-1.067 2.987-0.853 4.693 0.64 9.173 9.387 18.347 18.56 27.52 27.733 0.64 0.64 1.067 1.28 1.707 1.92-56.96 38.827-142.080 35.627-197.333-23.040-53.547-56.96-52.693-139.093-16.213-191.787 0.427 0.853 1.28 1.493 2.133 2.347zM469.547 598.187c-8.747-8.747-17.493-17.707-26.453-26.453-1.92-1.92-2.133-2.987-0.853-5.547 12.8-25.387 15.787-51.84 8.747-79.36-18.347-69.333-94.72-103.68-158.293-71.040-2.133 1.067-3.413 1.067-5.12-0.64-8.747-9.173-17.92-17.92-26.88-27.093-0.853-0.853-1.493-1.493-2.133-2.347 56.96-38.613 139.947-35.413 194.773 20.053 55.253 55.893 56.96 138.88 19.2 194.773-1.28-0.64-2.133-1.493-2.987-2.347zM935.253 567.893c-3.2 2.347-4.48 4.693-4.48 8.747 0.213 43.307 0 86.4 0.213 129.707 0 15.787-1.92 31.147-6.613 46.293-19.413 59.947-73.173 98.56-137.173 98.56-107.307 0-535.467 0.213-642.347-0.213-11.52 0-23.040-0.853-34.133-3.413-65.493-14.507-110.72-71.467-110.72-138.88 0-130.347 0-260.48 0-390.827 0-9.387 0.853-18.987 2.773-28.373 13.867-67.413 71.040-114.133 139.52-114.133 71.68 0 143.147 0 214.827 0 4.053 0 6.187-1.067 8.32-4.693 19.84-34.987 39.893-69.76 59.947-104.533 2.133-3.627 4.267-7.040 6.827-10.24 20.053-23.467 56.107-19.627 71.893 7.68 20.48 35.413 40.96 70.827 61.013 106.453 2.133 3.84 4.693 5.333 8.96 5.333 70.827-0.213 141.653-0.427 212.693 0 19.413 0 39.040 0.427 58.24 3.413 98.987 16.213 175.573 103.253 178.773 203.947 2.347 76.8-27.947 138.667-88.533 185.173zM650.88 236.587c-170.027 0-339.84 0-509.867 0-42.24 0-75.52 26.88-83.627 67.627-1.067 5.547-1.707 11.52-1.707 17.28 0 127.787-0.213 255.573 0 383.573 0 42.24 27.307 75.947 68.053 83.84 5.973 1.067 12.16 1.493 18.347 1.493 215.68 0 431.573 0 647.253 0 44.587 0 78.080-28.8 84.907-72.747 0.427-3.2 0.64-6.613 0.64-10.027 0-34.56 0-69.333 0-103.893 0-1.28-0.213-2.56-0.213-4.267-103.893 31.787-199.040-14.080-246.613-86.187-28.587-43.307-40.533-91.093-35.2-142.933 5.12-51.627 27.093-95.787 64.213-133.333-2.773-0.213-4.48-0.427-6.187-0.427zM725.973 365.227c-2.347 0.213-13.44 2.133-25.6 4.053-15.147 2.773-29.867 10.453-29.44 29.44 0.213 3.84 0.427 8.32 1.067 13.227 1.28 10.453 4.053 22.613 7.893 34.347 14.080 42.453 36.907 47.36 36.907 47.36 15.36 4.907 40.747-3.2 40.747-3.2s7.893-2.987 8.32-8.107c-8.533-0.853-13.867-0.427-20.48-11.52-29.227-48.64-24.747-84.053-24.747-89.6 0.853-7.68 3.84-11.307 5.973-12.587 1.707-0.853 1.493-3.627-0.64-3.413zM917.547 346.027c-7.893-4.907-17.92-1.707-20.907-1.28-2.987 0.64-12.587 2.133-18.773 2.56-15.147 0.853-27.733-5.547-27.733-5.547-19.413-11.52-1.707-26.88-1.707-26.88 12.8-11.093 20.267-22.827 20.267-22.827 14.72-23.893-3.2-38.187-7.253-39.467-1.493-0.427-1.707-0.64-2.56-0.64-7.467 0.213-8.107 11.307-18.133 21.76-12.8 13.44-18.987 15.787-21.547 17.707-4.267 3.2-18.987 14.72-37.547 37.12-7.893 9.6-17.92 31.147-17.92 31.147-1.707 1.707-18.133 8.747-20.907 10.027-8.533 3.627-8.32 15.147-8.32 15.147-0.427 34.133 18.773 71.467 22.187 78.080 3.627 6.613 10.24 7.893 10.24 7.893s6.187 1.707 16.213 0.64c7.253-0.853 21.547 4.267 21.547 4.267 24.96 7.253 70.613 3.413 83.84-7.467 35.413-28.587 44.373-112.853 29.013-122.24z" />
<glyph unicode="&#xe90c;" glyph-name="onprogress" d="M168.96 415.147c-38.187 0-69.547-31.36-69.547-69.547 0-38.613 31.36-70.187 69.547-70.187s69.333 31.573 69.547 69.76c0.213 38.613-30.933 69.973-69.547 69.973zM168.747 583.040c-38.4-0.213-69.547-31.787-69.333-70.4 0.213-38.187 31.787-69.547 69.973-69.333 38.4 0.213 69.547 31.787 69.333 70.4-0.213 38.4-31.787 69.547-69.973 69.333zM169.173 611.413c38.187 0 69.547 31.147 69.547 69.547 0 38.613-31.147 70.187-69.547 70.187-37.973 0-69.547-31.573-69.547-69.76-0.213-38.613 30.933-69.973 69.547-69.973zM169.387 728.747c25.813-0.213 46.933-21.547 46.933-47.36 0-26.24-21.12-47.573-47.36-47.573s-47.36 21.333-47.36 47.573c0.213 26.027 21.76 47.573 47.787 47.36zM539.733 534.187c-8.533 0.64-17.067 0.427-25.6 0.213-5.333-0.213-8.32 1.707-9.6 7.040-2.347 8.32-4.907 16.853-8.107 24.96-1.067 2.56-3.84 5.333-6.187 5.973-3.84 0.853-5.547-2.56-6.613-5.973-2.56-8.533-5.547-16.853-8.107-25.387-1.28-4.267-3.84-6.613-8.533-6.187-4.48 0.213-8.96 0-13.44 0-4.693 0-9.387 0.427-13.867-0.213-2.773-0.427-6.4-2.347-7.040-4.48s1.28-5.973 3.2-7.68c6.613-5.547 13.44-10.453 20.693-15.147 5.12-3.413 5.973-7.253 4.053-12.8-2.773-7.893-5.12-16-7.893-23.893-1.067-3.413-1.707-7.253 1.92-8.747 2.347-0.853 6.187-0.427 8.533 1.067 7.467 4.907 14.507 10.24 21.76 15.573 3.84 2.987 7.253 2.987 11.093 0 6.827-5.12 13.867-10.027 20.693-15.147 2.987-2.133 5.973-4.267 9.6-1.707s2.773 5.973 1.493 9.6c-2.773 8.32-5.333 16.64-8.107 24.96-1.493 4.267-0.427 7.467 3.2 10.027 7.253 5.12 14.293 10.453 21.547 15.787 2.987 2.133 5.547 4.907 3.627 8.32-1.707 1.707-5.547 3.627-8.32 3.84zM388.267 534.4c-8.32 0-16.64 0.213-24.96 0-4.693-0.213-7.253 1.92-8.533 6.187-2.56 8.533-5.547 17.067-8.107 25.387-1.067 3.413-2.773 7.040-6.613 6.187-2.56-0.64-5.333-3.627-6.4-6.4-3.2-8.32-5.76-16.853-8.32-25.387-1.28-4.053-3.627-6.187-8.107-5.973s-8.96 0-13.44 0c-4.693 0-9.387 0.427-13.867-0.213-2.773-0.427-6.187-1.92-7.467-4.053-2.133-3.413 0.427-6.187 3.413-8.32 7.040-4.907 13.653-10.24 20.693-14.933 4.48-2.987 5.76-6.613 4.053-11.947-2.987-8.107-5.333-16.213-7.893-24.32-1.067-3.413-1.707-6.613 1.707-9.173 3.413-2.347 6.187-0.853 9.173 1.28 7.040 5.12 14.293 10.24 21.12 15.573 4.053 3.2 7.467 2.987 11.52 0 6.827-5.12 13.867-10.027 20.693-15.147 2.987-2.133 6.613-4.48 9.387-1.28 1.707 1.92 2.133 6.187 1.493 8.96-2.133 8.533-5.12 16.64-7.893 24.96-1.493 4.48-0.64 7.68 3.413 10.453 6.827 4.693 13.227 9.6 19.84 14.293 3.2 2.347 6.827 4.48 5.333 9.173-2.133 4.907-6.4 4.693-10.24 4.693zM286.293 689.28c7.040-4.907 13.653-10.24 20.693-14.933 4.053-2.987 5.12-6.4 3.627-11.093-2.773-7.893-5.12-16-7.68-23.893-1.28-3.627-2.56-7.253 1.493-10.027 3.627-2.56 6.613-0.427 9.6 1.707 6.827 5.12 13.867 10.027 20.693 15.147 3.84 2.987 7.253 2.987 11.093 0 7.040-5.333 14.293-10.88 21.76-15.573 2.133-1.493 6.827-2.347 8.32-1.067 1.92 1.707 2.56 5.973 1.92 8.747-2.133 8.32-4.907 16.427-7.68 24.32-1.92 5.12-0.853 8.747 3.84 11.947 7.253 4.907 14.293 10.027 21.12 15.573 1.92 1.707 3.84 5.76 3.2 7.68-0.64 2.133-4.48 4.053-7.253 4.267-8.533 0.427-17.067 0.427-25.6 0.213-5.76-0.213-8.96 1.92-10.453 7.467-2.133 8.107-5.12 16-7.68 23.893-1.067 3.627-2.56 6.827-7.040 6.613-4.053-0.213-5.333-3.2-6.4-6.613-2.773-8.533-5.547-16.853-8.107-25.387-1.28-4.053-3.84-6.187-8.107-5.973-4.48 0.213-8.96 0-13.44 0-4.267 0-8.533 0-12.8 0-3.627 0-7.253 0-8.747-4.267-2.133-4.267 0.427-6.613 3.627-8.747zM436.053 689.707c7.040-4.907 13.653-10.24 20.693-14.933 4.693-3.2 5.547-6.827 3.627-11.947-2.987-8.107-5.333-16.213-7.893-24.32-1.067-3.413-1.707-7.253 1.92-8.747 2.347-0.853 6.187-0.427 8.533 1.067 7.68 4.907 14.933 10.453 22.187 15.787 3.413 2.56 6.613 2.56 10.027 0 7.040-5.333 14.293-10.88 21.76-15.573 2.347-1.493 6.4-2.347 8.96-1.28 3.627 1.493 2.987 5.547 1.92 8.747-2.773 8.533-5.333 17.067-8.32 25.387-1.493 4.267-0.427 7.467 3.413 10.027 7.040 5.12 14.080 10.24 21.12 15.36 2.987 2.133 5.547 4.693 4.267 8.747-1.493 4.267-5.12 4.267-8.747 4.267-8.533 0-17.067 0.213-25.6 0-4.907-0.213-7.467 1.92-8.96 6.613-2.56 8.533-5.12 17.067-8.32 25.387-0.853 2.56-3.84 5.333-6.187 5.973-3.84 1.067-5.547-2.56-6.613-5.973-2.56-8.107-5.333-16.213-7.68-24.533-1.493-5.12-4.267-7.893-10.027-7.467-4.053 0.427-8.107 0-12.16 0-4.48 0-8.96 0-13.44 0-3.627 0-6.827-0.427-8.107-4.267-1.707-4.053 0.64-6.4 3.627-8.32zM610.773 663.467c-2.987-8.32-5.333-16.64-8.107-24.96-1.067-3.413-1.92-6.613 1.493-9.173 3.627-2.56 6.613-0.853 9.6 1.28 6.827 5.12 13.867 10.027 20.693 15.147 4.053 2.987 7.467 3.2 11.52 0 6.4-4.907 13.227-9.6 19.84-14.507 3.2-2.347 6.4-5.12 10.453-2.133s2.133 7.040 1.067 10.667c-2.56 7.893-4.907 15.573-7.68 23.253-1.707 4.48-0.64 7.68 3.413 10.453 7.253 5.12 14.72 10.24 21.547 15.787 2.133 1.707 3.84 5.333 3.627 7.68-0.213 3.84-4.053 4.693-7.68 4.693-8.96 0-17.707 0-26.667 0-4.693 0-7.253 1.707-8.533 6.187-2.56 8.533-5.333 17.067-8.107 25.387-1.067 3.413-2.56 6.4-6.613 6.4s-5.547-2.987-6.613-6.4c-2.347-7.68-4.907-15.147-7.467-22.827-2.773-8.533-2.987-8.747-12.16-8.747-3.413 0-6.613 0-10.027 0-4.693 0-9.173 0-13.867 0-3.627 0-7.467-0.64-7.68-4.693-0.213-2.56 1.707-5.973 3.627-7.68 6.827-5.547 14.293-10.667 21.547-15.787 3.413-2.133 4.48-5.333 2.773-10.027zM389.12 366.080c-8.32 0-16.64 0.213-24.96 0-5.333-0.213-8.107 2.133-9.6 7.253-2.56 8.747-5.333 17.493-8.533 26.027-0.853 2.133-3.84 4.48-5.973 4.48s-4.907-2.347-5.973-4.48c-2.133-4.48-3.2-9.387-4.907-14.293-7.467-21.973-2.347-18.56-26.027-18.987-4.48 0-8.96 0.427-13.227-0.213-2.773-0.427-6.187-1.92-7.467-4.053-2.133-3.413 0.64-6.187 3.413-8.32 7.040-5.12 14.080-10.453 21.12-15.36 4.267-2.987 5.12-6.4 3.627-11.093-2.987-8.533-5.973-16.853-8.107-25.6-0.64-2.56 0.213-6.827 1.92-8.107s6.187-0.64 8.32 0.853c7.467 4.907 14.507 10.24 21.76 15.573 3.84 2.987 7.253 2.987 11.093 0 7.040-5.333 14.293-10.88 21.76-15.573 2.133-1.493 6.187-2.133 8.533-1.067 3.84 1.493 2.987 5.547 1.92 8.747-2.56 8.107-5.12 16.427-7.893 24.32-1.92 5.12-1.067 8.747 3.84 11.947 6.827 4.48 13.227 9.6 19.84 14.293 3.2 2.347 6.187 4.48 4.693 8.96-1.92 4.907-5.76 4.693-9.173 4.693zM935.68 568.107c-3.2 2.347-4.48 4.693-4.48 8.747 0.213 43.307 0 86.4 0.213 129.707 0 15.787-1.92 31.147-6.613 46.293-19.413 59.947-72.96 98.773-136.96 98.773-107.307 0-214.4 0-321.707 0-106.88 0-213.76 0-320.64-0.213-11.52 0-23.040-0.853-34.133-3.413-65.493-14.72-110.72-71.68-110.72-139.093-0.213-130.347 0-260.48 0-390.827 0-9.387 0.853-18.987 2.773-28.373 13.867-67.413 71.040-114.133 139.52-114.133 71.68 0 143.147 0 214.827 0 4.053 0 6.187-1.067 8.32-4.693 19.84-34.987 39.893-69.76 59.947-104.533 2.133-3.627 4.267-7.040 6.827-10.24 20.053-23.467 56.107-19.627 71.893 7.68 20.48 35.413 40.96 70.827 61.013 106.453 2.133 3.84 4.693 5.333 8.96 5.333 70.827-0.213 141.653-0.427 212.693 0 19.413 0 39.040 0.427 58.24 3.413 98.987 16.213 175.573 103.253 178.773 203.947 2.133 76.8-28.16 138.453-88.747 185.173zM651.093 236.8c-170.027 0-339.84 0-509.867 0-42.24 0-75.52 26.88-83.627 67.627-1.067 5.547-1.707 11.52-1.707 17.28 0 127.787-0.213 255.573 0 383.573 0 42.24 27.307 75.947 68.053 83.84 6.4 0.853 12.587 1.28 18.56 1.28 215.68 0 431.573 0 647.253 0 44.587 0 78.080-28.8 84.907-72.747 0.427-3.2 0.64-6.613 0.64-10.027 0-34.56 0-69.333 0-103.893 0-1.28-0.213-2.56-0.213-4.267-103.893 31.787-199.040-14.080-246.613-86.187-28.587-43.307-40.533-91.093-35.2-142.933 5.12-51.627 27.093-95.787 64.213-133.333-2.773 0-4.48-0.213-6.4-0.213zM675.413 448.427c-0.213 0.64-0.853 1.493-1.067 2.133 0 1.493 0 2.987 0 4.48 0.213 0.213 0.427 0.427 0.427 0.64 1.493 3.413 3.84 5.547 7.68 5.547s6.4-2.133 7.893-5.76c0.64-1.707 1.493-3.413 2.347-5.547 0.64 1.28 1.067 2.347 1.707 3.2 19.627 40.32 51.2 65.28 94.72 75.093 6.187 1.28 12.373 1.92 18.56 2.773 5.547 0 10.88 0 16.427 0 5.12-0.64 10.24-1.067 15.36-2.133 54.4-11.52 89.813-44.373 105.813-97.92 1.493-4.907-0.853-9.6-5.333-10.88-4.693-1.28-8.96 1.067-10.453 6.4-7.040 25.387-20.48 46.507-41.173 62.933-58.667 46.507-146.133 26.24-178.56-41.6-0.427-1.067-0.853-2.133-1.493-3.627 2.133 0.853 3.84 1.707 5.76 2.347 4.48 1.707 8.96 0 10.88-4.053 1.92-4.267 0-8.96-4.48-10.88-8.107-3.627-16.213-7.040-24.32-10.24-4.693-1.92-8.96 0-10.88 4.693-3.413 7.040-6.613 14.72-9.813 22.4zM949.333 321.493c-4.267-1.92-8.747 0.213-10.88 4.907-0.64 1.493-1.28 3.2-1.92 4.267-4.693-7.893-8.747-16.213-14.080-23.68-23.040-32.427-54.187-51.627-93.653-56.32-64.64-7.893-124.587 31.36-144 93.653-0.64 1.92-1.28 3.84-1.707 5.76-1.067 4.693 1.493 9.173 5.76 10.453 4.48 1.067 8.747-1.28 10.027-6.187 4.053-15.147 10.453-29.013 20.053-41.387 21.547-27.733 49.707-43.52 84.693-46.507 49.067-4.053 95.147 23.253 115.84 68.053 0.427 1.067 1.067 2.347 1.707 4.053-2.56-1.067-4.48-1.92-6.4-2.773-4.693-1.92-9.387 0-11.307 4.267-1.707 4.267 0.213 8.96 4.907 10.88 7.68 3.413 15.573 6.613 23.467 9.813 5.12 2.133 9.387 0.427 11.52-4.693 3.413-7.893 6.613-15.573 9.813-23.467 2.347-4.693 0.427-9.387-3.84-11.093z" />
<glyph unicode="&#xe90d;" glyph-name="phone" d="M873.984 810.112c-92.649 92.621-220.626 149.907-361.984 149.907-282.77 0-512-229.23-512-512s229.23-512 512-512c282.77 0 512 229.23 512 512 0 0.039 0 0.077 0 0.116v-0.007c-0.031 141.372-57.355 269.35-150.014 361.982l-0.002 0.002zM775.403 246.912v0 0.171l-25.941-25.771c-24.766-25.070-59.143-40.597-97.147-40.597-11.251 0-22.183 1.361-32.643 3.927l0.936-0.194c-50.073 13.63-93.924 33.851-133.427 60.095l1.672-1.045c-39.142 25.222-73.173 52.854-103.907 83.768l-0.029 0.029c-28.312 28.112-53.868 58.925-76.273 92.044l-1.38 2.164c-23.421 33.983-43.194 73.066-57.373 114.736l-0.995 3.366c-4.219 12.574-6.653 27.053-6.653 42.101 0 38.097 15.604 72.55 40.769 97.316l30.397 30.397c3.923 3.923 9.342 6.35 15.328 6.35s11.406-2.427 15.328-6.35l96-96c3.923-3.923 6.35-9.342 6.35-15.328s-2.427-11.406-6.35-15.328l-56.32-56.32c-8.415-8.325-13.625-19.874-13.625-32.641 0-10.189 3.319-19.603 8.935-27.219l-0.089 0.126c21.343-29.117 43.456-54.803 67.394-78.659l0.019-0.019c26.715-26.858 55.712-51.387 86.696-73.291l2.050-1.375c7.378-5.203 16.555-8.315 26.458-8.315 12.716 0 24.234 5.132 32.595 13.438l-0.002-0.002 54.357 55.211c3.923 3.923 9.342 6.35 15.328 6.35s11.406-2.427 15.328-6.35v0l96-96.256c3.981-3.932 6.447-9.39 6.447-15.424 0-5.928-2.38-11.3-6.236-15.213l0.003 0.003z" />
<glyph unicode="&#xe90e;" glyph-name="road" d="M1018.453 187.733l-248.32 568.96c-8.32 19.84-27.733 32.853-49.28 33.28h-173.44l4.267-41.173c0.853-7.893-4.907-14.72-12.587-15.573-0.427 0-1.067 0-1.493 0h-51.84c-7.893 0-14.293 6.4-14.293 14.293 0 0.427 0 1.067 0 1.493l4.267 41.173h-173.44c-21.547-0.213-40.96-13.227-49.28-33.28l-247.893-569.173c-13.227-28.373-0.853-62.293 27.733-75.307 6.827-3.2 14.293-4.907 21.76-5.12h349.653l18.347 173.653c1.493 14.507 13.653 25.6 28.373 25.6h122.24c14.507 0 26.88-11.093 28.373-25.6l18.347-173.653h349.653c31.36 1.067 55.68 27.52 54.613 58.88-0.64 7.253-2.56 14.72-5.76 21.547zM462.72 663.253c0.64 7.253 6.827 12.8 14.080 12.8h69.76c7.253 0 13.44-5.547 14.080-12.8l8.107-77.44c1.28-11.733-7.253-22.187-18.987-23.467-0.64 0-1.493-0.213-2.133-0.213h-71.893c-11.733 0-21.333 9.6-21.333 21.333 0 0.853 0 1.493 0.213 2.347 0 0 8.107 77.44 8.107 77.44zM560.853 363.093h-98.133c-15.787 0-28.373 12.8-28.373 28.373 0 1.067 0 1.92 0.213 2.987l8.96 85.333c1.493 14.507 13.653 25.6 28.373 25.6h80.213c14.507 0 26.88-11.093 28.373-25.6l8.96-85.333c1.707-15.573-9.6-29.653-25.387-31.36-1.067 0-2.133 0-3.2 0z" />
<glyph unicode="&#xe90f;" glyph-name="suitable" d="M935.893 559.36c-3.2 2.347-4.48 4.693-4.48 8.747 0.213 43.307 0 86.4 0.213 129.707 0 15.787-1.92 31.147-6.613 46.293-19.413 59.947-72.96 98.773-136.96 98.773-107.307 0-214.4 0-321.707 0-106.88 0-213.76 0-320.64-0.213-11.52 0-23.040-0.853-34.133-3.413-65.493-14.72-110.72-71.68-110.72-139.093-0.213-130.347 0-260.48 0-390.827 0-9.387 0.853-18.987 2.773-28.373 13.867-67.413 71.040-114.133 139.52-114.133 71.68 0 143.147 0 214.827 0 4.053 0 6.187-1.067 8.32-4.693 19.84-34.987 39.893-69.76 59.947-104.533 2.133-3.627 4.267-7.040 6.827-10.24 20.053-23.467 56.107-19.627 71.893 7.68 20.48 35.413 40.96 70.827 61.013 106.453 2.133 3.84 4.693 5.333 8.96 5.333 70.827-0.213 141.653-0.427 212.693 0 19.413 0 39.040 0.427 58.24 3.413 98.987 16.213 175.573 103.253 178.773 203.947 2.347 77.013-27.947 138.667-88.747 185.173zM651.52 228.053c-170.027 0-339.84 0-509.867 0-42.24 0-75.52 26.88-83.627 67.627-1.067 5.547-1.707 11.52-1.707 17.28 0 127.787-0.213 255.573 0 383.573 0 42.24 27.307 75.947 68.053 83.84 6.187 1.067 12.373 1.28 18.56 1.28 215.68 0 431.573 0 647.253 0 44.587 0 78.080-28.8 84.907-72.747 0.427-3.2 0.64-6.613 0.64-10.027 0-34.56 0-69.333 0-103.893 0-1.28-0.213-2.56-0.213-4.267-103.893 31.787-199.040-14.080-246.613-86.187-28.587-43.307-40.533-91.093-35.2-142.933 5.12-51.627 27.093-95.787 64.213-133.333-2.987 0-4.693-0.213-6.4-0.213zM931.2 458.667c-1.28-1.92-2.773-3.413-4.48-5.12-49.067-52.053-98.133-104.32-147.2-156.373-8.107-8.533-13.013-8.747-21.547-0.64-26.453 25.6-53.12 50.987-79.573 76.587-1.92 1.707-3.84 3.627-4.907 5.973-2.347 4.48-0.853 10.027 2.987 13.227 4.267 3.627 9.813 3.627 14.293-0.213 4.693-4.053 9.173-8.747 13.653-13.013 21.12-20.267 42.453-40.747 63.787-61.227 8.96 9.387 17.707 18.773 26.453 28.16 38.827 41.387 77.653 82.56 116.48 123.947 1.067 1.28 2.347 2.56 3.627 3.627 4.48 3.627 10.667 3.413 14.72-0.427 4.053-4.053 4.693-9.813 1.707-14.507zM302.72 641.92c-14.080-0.213-28.373 0.213-42.453-0.213-7.253-0.213-11.52 2.773-13.653 9.813-4.053 13.653-8.747 27.093-13.013 40.533-1.707 5.333-4.053 10.24-10.667 10.24s-8.747-4.693-10.453-10.24c-3.84-12.16-7.893-24.107-11.733-36.267-4.48-13.653-4.907-13.867-19.413-13.867-5.333 0-10.667 0-16 0-7.467 0-14.72-0.213-22.187 0-5.76 0.213-11.733-1.067-12.16-7.253-0.213-4.053 2.56-9.6 5.76-12.16 10.88-8.96 22.613-17.067 34.347-25.173 6.187-4.48 7.893-9.6 5.333-16.853-4.693-13.013-8.533-26.453-13.013-39.68-1.707-5.333-2.987-10.453 2.347-14.507 5.547-4.267 10.453-1.493 15.147 2.133 10.88 8.107 22.187 15.787 32.853 24.107 6.4 4.907 11.947 5.12 18.347 0 10.24-7.893 20.907-15.36 31.36-23.040 5.12-3.84 10.24-8.107 16.64-3.413 6.613 4.907 3.413 11.093 1.707 17.067-4.053 12.373-7.893 24.96-12.16 37.12-2.56 7.253-0.853 12.373 5.333 16.853 11.733 8.107 23.253 16.213 34.133 25.387 3.2 2.773 6.187 8.32 5.76 12.373-0.427 5.973-6.4 7.253-12.16 7.040zM302.72 426.88c-14.293-0.213-28.373 0.213-42.453-0.213-7.253-0.213-11.52 2.773-13.653 9.813-4.053 13.653-8.747 27.093-13.013 40.533-1.707 5.333-4.053 10.24-10.667 10.24s-8.747-4.693-10.453-10.24c-3.84-12.16-7.893-24.107-11.733-36.267-4.48-13.653-4.907-13.867-19.413-13.867-5.333 0-10.667 0-16 0-7.467 0-14.72-0.213-22.187 0-5.76 0.213-11.733-1.067-12.16-7.253-0.213-4.053 2.56-9.6 5.76-12.16 10.88-8.96 22.613-17.067 34.347-25.173 6.187-4.48 7.893-9.6 5.333-16.853-4.693-13.013-8.533-26.453-13.013-39.68-1.707-5.333-2.987-10.453 2.347-14.507 5.547-4.267 10.453-1.493 15.147 2.133 10.88 8.107 22.187 15.787 32.853 24.107 6.4 4.907 11.947 5.12 18.347 0 10.24-7.893 20.907-15.36 31.36-23.040 5.12-3.84 10.24-8.107 16.64-3.413 6.613 4.907 3.413 11.093 1.707 17.067-4.053 12.373-7.893 24.96-12.16 37.12-2.56 7.253-0.853 12.373 5.333 16.853 11.733 8.107 23.253 16.213 34.133 25.387 3.2 2.773 6.187 8.32 5.76 12.373-0.427 5.973-6.4 7.040-12.16 7.040zM498.347 546.773c-14.080-0.213-28.373 0.213-42.453-0.213-7.253-0.213-11.52 2.773-13.653 9.813-4.053 13.653-8.747 27.093-13.013 40.533-1.707 5.333-4.053 10.24-10.667 10.24s-8.747-4.693-10.453-10.24c-3.84-12.16-7.893-24.107-11.733-36.267-4.48-13.653-4.907-13.867-19.413-13.867-5.333 0-10.667 0-16 0-7.467 0-14.72-0.213-22.187 0-5.76 0.213-11.733-1.067-12.16-7.253-0.213-4.053 2.56-9.6 5.76-12.16 10.88-8.96 22.613-17.067 34.347-25.173 6.187-4.48 7.893-9.6 5.333-16.853-4.693-13.013-8.533-26.453-13.013-39.68-1.707-5.333-2.987-10.453 2.347-14.507 5.547-4.267 10.453-1.493 15.147 2.133 10.88 8.107 22.187 15.787 32.853 24.107 6.4 4.907 11.947 5.12 18.347 0 10.24-7.893 20.907-15.36 31.36-23.040 5.12-3.84 10.24-8.107 16.64-3.413 6.613 4.907 3.413 11.093 1.707 17.067-4.053 12.373-7.893 24.96-12.16 37.12-2.56 7.253-0.853 12.373 5.333 16.853 11.733 8.107 23.253 16.213 34.133 25.387 3.2 2.773 6.187 8.32 5.76 12.373-0.427 5.973-6.4 7.253-12.16 7.040z" />
<glyph unicode="&#xe910;" glyph-name="tower" d="M251.093 417.92c5.973-7.253 5.333-17.92-1.92-23.893s-17.92-5.333-23.893 1.92c-72.96 85.333-110.72 181.973-109.867 279.68 1.28 95.36 38.4 191.36 114.987 278.827 5.973 6.827 16.64 7.68 23.893 1.493 6.827-5.973 7.68-16.64 1.493-23.893-71.040-80.853-105.6-169.387-106.24-256.64-0.64-89.813 33.92-178.347 101.547-257.493v0zM549.973 625.493c8.533-106.027 26.88-205.44 53.12-294.827 4.267-14.507-6.613-28.8-21.547-28.8h-148.267c-14.933 0-25.813 14.293-21.547 28.8 26.667 90.453 45.44 191.36 54.4 299.093l-0.427 0.427c-11.52 11.52-18.56 27.307-18.56 44.8s7.253 33.28 18.56 44.8c11.52 11.52 27.307 18.56 44.8 18.56s33.28-7.253 44.8-18.56c11.52-11.52 18.56-27.307 18.56-44.8 0-9.813-2.133-18.773-6.187-27.093-4.48-8.96-10.453-16.64-17.707-22.4v0zM623.147 269.653c4.053-11.52 8.32-23.040 12.8-34.133 5.973-14.933-4.907-30.933-20.907-30.933h-214.827c-16 0-26.667 16-20.907 30.933 2.56 6.4 4.907 12.8 7.467 19.413 3.2 8.96 11.733 14.933 21.12 14.933l215.253-0.213zM663.893 171.947c26.027-53.547 147.2-201.387 147.2-213.973 0-0.213 0-0.213 0-0.427 0-11.947-10.453-21.333-22.613-21.333h-90.88c-11.307 0-21.12 8.533-22.4 19.84-14.507 130.56-184.533 188.587-280.533 95.787-26.027-25.173-41.387-58.667-49.493-97.493-2.133-10.453-11.307-17.92-21.973-17.92h-90.667c-12.373 0-23.040 10.24-22.4 22.613 0 0 0 0.213 0 0.213 0.853 12.373 101.76 141.867 135.253 201.6 4.053 7.040 11.52 11.307 19.627 11.307l298.88-0.213zM339.413 500.053c6.187-6.827 5.547-17.493-1.493-23.893-6.827-6.187-17.493-5.547-23.893 1.493-56.107 63.573-85.12 130.773-83.84 198.827 1.067 66.347 30.507 132.907 90.453 196.48 6.4 6.613 17.067 7.253 23.893 0.64 6.613-6.4 7.253-17.067 0.64-23.893-53.76-57.387-80.427-116.053-81.28-173.653-0.853-59.52 24.96-119.253 75.307-176.213l0.213 0.213zM417.493 578.133c5.76-7.253 4.907-17.707-2.56-23.68-7.253-5.76-17.707-4.907-23.68 2.56-30.293 37.12-46.080 77.653-46.293 118.827-0.213 39.893 14.72 80.213 45.44 117.76 5.76 7.253 16.427 8.32 23.68 2.56s8.32-16.427 2.56-23.68c-25.6-31.36-38.187-64.427-38.187-96.64 0-33.067 13.44-66.347 38.613-97.493l0.427-0.213zM795.307 395.947c-5.973-7.253-16.64-7.893-23.893-1.92s-7.893 16.64-1.92 23.893c67.627 78.933 102.613 167.893 101.76 257.493-0.64 87.253-35.413 175.787-106.24 256.853-5.973 6.827-5.333 17.493 1.493 23.893 6.827 5.973 17.493 5.333 23.893-1.493 76.587-87.68 113.707-183.467 114.56-278.827 1.067-97.92-36.693-194.56-109.653-279.893v0zM706.773 477.867c-6.187-6.827-16.853-7.68-23.893-1.493-6.827 6.187-7.68 16.853-1.493 23.893 50.56 57.173 76.373 116.693 75.307 176.213-0.853 58.027-27.52 116.693-81.28 173.653-6.4 6.613-5.973 17.28 0.64 23.893 6.613 6.4 17.28 5.973 23.893-0.64 59.947-63.573 89.173-129.92 90.453-196.48 1.067-68.267-27.52-135.467-83.84-198.827l0.213-0.213zM629.547 557.013c-5.76-7.253-16.427-8.32-23.68-2.56s-8.32 16.427-2.56 23.68c25.387 31.147 38.613 64.427 38.613 97.493 0 32.427-12.16 65.067-38.187 96.64-5.76 7.253-4.907 17.92 2.56 23.68 7.253 5.76 17.92 4.907 23.68-2.56 30.72-37.76 45.867-77.867 45.44-117.76-0.213-41.173-16-81.28-46.293-118.827l0.427 0.213z" />
<glyph unicode="&#xe911;" glyph-name="twitter" d="M511.573-63.787c-135.893-0.427-266.24 53.547-362.027 149.973-96.427 95.787-150.4 226.133-149.973 362.027-0.213 135.68 53.76 266.027 149.973 362.027 95.787 96.427 226.133 150.4 362.027 149.973 135.893 0.427 266.24-53.76 362.027-149.973 96.427-95.787 150.4-226.133 149.973-362.027 0.427-135.893-53.76-266.24-149.973-362.027-95.787-96.427-226.133-150.4-362.027-149.973zM191.573 247.040v0c59.947-38.613 129.92-59.093 201.173-58.88 55.253-0.427 109.867 11.093 160.213 33.92 44.8 20.693 84.693 50.56 117.12 87.68 61.227 69.76 95.36 159.147 96.213 251.733 0 5.76 0 11.307-0.427 17.067 25.813 18.56 48 41.6 65.493 67.84-23.893-10.667-49.493-17.493-75.52-20.693 27.307 16.427 47.787 42.24 57.6 72.747-25.6-15.36-53.76-26.24-83.2-32-24.96 26.453-59.733 41.6-96 41.6-72.32-0.213-130.987-58.88-131.2-131.2 0-10.027 1.067-20.053 3.413-29.867-105.6 5.547-203.947 55.253-270.72 137.173-11.733-20.053-17.707-42.88-17.707-65.92 0-43.947 21.973-84.907 58.453-109.227-20.907 0.64-41.173 6.187-59.52 16.427v-1.707c0-62.507 44.16-116.267 105.387-128.64-11.307-2.987-22.827-4.693-34.56-4.693-8.32 0-16.64 0.853-24.747 2.347 17.067-53.547 66.347-90.24 122.667-91.093-46.507-36.693-104.107-56.32-163.2-56.107-10.027-0.213-20.48 0.427-30.933 1.493v0z" />
<glyph unicode="&#xe912;" glyph-name="image" d="M959.884 832c0.040-0.034 0.082-0.076 0.116-0.116v-767.77c-0.034-0.040-0.076-0.082-0.116-0.116h-895.77c-0.040 0.034-0.082 0.076-0.114 0.116v767.772c0.034 0.040 0.076 0.082 0.114 0.114h895.77zM960 896h-896c-35.2 0-64-28.8-64-64v-768c0-35.2 28.8-64 64-64h896c35.2 0 64 28.8 64 64v768c0 35.2-28.8 64-64 64v0zM832 672c0-53.020-42.98-96-96-96s-96 42.98-96 96 42.98 96 96 96 96-42.98 96-96zM896 128h-768v128l224 384 256-320h64l224 192z" />
<glyph unicode="&#xe913;" glyph-name="arrow-up" d="M877.254 557.254l-320 320c-24.992 24.994-65.514 24.994-90.508 0l-320-320c-24.994-24.994-24.994-65.516 0-90.51 24.994-24.996 65.516-24.996 90.51 0l210.744 210.746v-613.49c0-35.346 28.654-64 64-64s64 28.654 64 64v613.49l210.746-210.746c12.496-12.496 28.876-18.744 45.254-18.744s32.758 6.248 45.254 18.746c24.994 24.994 24.994 65.514 0 90.508z" />
<glyph unicode="&#xe914;" glyph-name="fullscreen" d="M268.181 350.485h-97.515v-243.819h243.819v97.515h-146.304zM170.667 545.515h97.515v146.304h146.283v97.515h-243.797zM755.819 204.181h-146.304v-97.515h243.819v243.819h-97.515zM609.515 789.333v-97.515h146.283v-146.283h97.536v243.797z" />
<glyph unicode="&#xe915;" glyph-name="layers" d="M187.221 591.957l310.592-140.8c4.167-1.953 9.049-3.093 14.197-3.093s10.030 1.14 14.407 3.181l-0.21-0.088 310.592 140.8c9.815 5.030 16.417 15.077 16.417 26.667s-6.601 21.637-16.248 26.588l-0.168 0.078-310.613 140.949c-4.167 1.953-9.049 3.093-14.197 3.093s-10.030-1.14-14.407-3.181l0.21 0.088-310.571-140.907c-9.815-5.030-16.417-15.077-16.417-26.667s6.601-21.637 16.248-26.588l0.168-0.078zM836.779 474.261l-77.461 35.115-215.509-97.664c-9.34-4.355-20.277-6.897-31.808-6.897s-22.468 2.541-32.282 7.094l0.474-0.198-215.467 97.685-77.504-35.157c-9.815-5.030-16.417-15.077-16.417-26.667s6.601-21.637 16.248-26.588l0.168-0.078 310.592-140.8c4.168-1.946 9.050-3.082 14.197-3.082s10.029 1.136 14.409 3.17l-0.211-0.088 310.592 140.8c9.815 5.030 16.417 15.077 16.417 26.667s-6.601 21.637-16.248 26.588l-0.168 0.078zM836.779 303.872l-77.163 34.965-215.808-97.792c-9.34-4.355-20.277-6.897-31.808-6.897s-22.468 2.541-32.282 7.094l0.474-0.198-215.808 97.771-77.163-34.965c-9.815-5.030-16.417-15.077-16.417-26.667s6.601-21.637 16.248-26.588l0.168-0.078 310.592-140.8c4.168-1.946 9.050-3.082 14.197-3.082s10.029 1.136 14.409 3.17l-0.211-0.088 310.592 140.8c9.81 5.031 16.406 15.076 16.406 26.661 0 11.594-6.606 21.644-16.259 26.594l-0.168 0.078z" />
<glyph unicode="&#xe989;" glyph-name="enlarge" d="M1024 960h-416l160-160-192-192 96-96 192 192 160-160zM1024-64v416l-160-160-192 192-96-96 192-192-160-160zM0-64h416l-160 160 192 192-96 96-192-192-160 160zM0 960v-416l160 160 192-192 96 96-192 192 160 160z" />
<glyph unicode="&#xe9c9;" glyph-name="sphere" d="M480 896c-265.096 0-480-214.904-480-480 0-265.098 214.904-480 480-480 265.098 0 480 214.902 480 480 0 265.096-214.902 480-480 480zM751.59 256c8.58 40.454 13.996 83.392 15.758 128h127.446c-3.336-44.196-13.624-87.114-30.68-128h-112.524zM208.41 576c-8.58-40.454-13.996-83.392-15.758-128h-127.444c3.336 44.194 13.622 87.114 30.678 128h112.524zM686.036 576c9.614-40.962 15.398-83.854 17.28-128h-191.316v128h174.036zM512 640v187.338c14.59-4.246 29.044-11.37 43.228-21.37 26.582-18.74 52.012-47.608 73.54-83.486 14.882-24.802 27.752-52.416 38.496-82.484h-155.264zM331.232 722.484c21.528 35.878 46.956 64.748 73.54 83.486 14.182 10 28.638 17.124 43.228 21.37v-187.34h-155.264c10.746 30.066 23.616 57.68 38.496 82.484zM448 576v-128h-191.314c1.88 44.146 7.666 87.038 17.278 128h174.036zM95.888 256c-17.056 40.886-27.342 83.804-30.678 128h127.444c1.762-44.608 7.178-87.546 15.758-128h-112.524zM256.686 384h191.314v-128h-174.036c-9.612 40.96-15.398 83.854-17.278 128zM448 192v-187.34c-14.588 4.246-29.044 11.372-43.228 21.37-26.584 18.74-52.014 47.61-73.54 83.486-14.882 24.804-27.75 52.418-38.498 82.484h155.266zM628.768 109.516c-21.528-35.876-46.958-64.746-73.54-83.486-14.184-9.998-28.638-17.124-43.228-21.37v187.34h155.266c-10.746-30.066-23.616-57.68-38.498-82.484zM512 256v128h191.314c-1.88-44.146-7.666-87.040-17.28-128h-174.034zM767.348 448c-1.762 44.608-7.178 87.546-15.758 128h112.524c17.056-40.886 27.344-83.806 30.68-128h-127.446zM830.658 640h-95.9c-18.638 58.762-44.376 110.294-75.316 151.428 42.536-20.34 81.058-47.616 114.714-81.272 21.48-21.478 40.362-44.938 56.502-70.156zM185.844 710.156c33.658 33.658 72.18 60.932 114.714 81.272-30.942-41.134-56.676-92.666-75.316-151.428h-95.898c16.138 25.218 35.022 48.678 56.5 70.156zM129.344 192h95.898c18.64-58.762 44.376-110.294 75.318-151.43-42.536 20.34-81.058 47.616-114.714 81.274-21.48 21.478-40.364 44.938-56.502 70.156zM774.156 121.844c-33.656-33.658-72.18-60.934-114.714-81.274 30.942 41.134 56.678 92.668 75.316 151.43h95.9c-16.14-25.218-35.022-48.678-56.502-70.156z" />
<glyph unicode="&#xe9cb;" glyph-name="link" d="M440.236 324.234c-13.31 0-26.616 5.076-36.77 15.23-95.134 95.136-95.134 249.934 0 345.070l192 192c46.088 46.086 107.36 71.466 172.534 71.466s126.448-25.38 172.536-71.464c95.132-95.136 95.132-249.934 0-345.070l-87.766-87.766c-20.308-20.308-53.23-20.308-73.54 0-20.306 20.306-20.306 53.232 0 73.54l87.766 87.766c54.584 54.586 54.584 143.404 0 197.99-26.442 26.442-61.6 41.004-98.996 41.004s-72.552-14.562-98.996-41.006l-192-191.998c-54.586-54.586-54.586-143.406 0-197.992 20.308-20.306 20.306-53.232 0-73.54-10.15-10.152-23.462-15.23-36.768-15.23zM256-52c-65.176 0-126.45 25.38-172.534 71.464-95.134 95.136-95.134 249.934 0 345.070l87.764 87.764c20.308 20.306 53.234 20.306 73.54 0 20.308-20.306 20.308-53.232 0-73.54l-87.764-87.764c-54.586-54.586-54.586-143.406 0-197.992 26.44-26.44 61.598-41.002 98.994-41.002s72.552 14.562 98.998 41.006l192 191.998c54.584 54.586 54.584 143.406 0 197.992-20.308 20.308-20.306 53.232 0 73.54 20.306 20.306 53.232 20.306 73.54-0.002 95.132-95.134 95.132-249.932 0.002-345.068l-192.002-192c-46.090-46.088-107.364-71.466-172.538-71.466z" />
<glyph unicode="&#xea0d;" glyph-name="cancel-circle" d="M512 960c-282.77 0-512-229.23-512-512s229.23-512 512-512 512 229.23 512 512-229.23 512-512 512zM512 32c-229.75 0-416 186.25-416 416s186.25 416 416 416 416-186.25 416-416-186.25-416-416-416zM672 704l-160-160-160 160-96-96 160-160-160-160 96-96 160 160 160-160 96 96-160 160 160 160z" />
<glyph unicode="&#xea2e;" glyph-name="loop" d="M889.68 793.68c-93.608 102.216-228.154 166.32-377.68 166.32-282.77 0-512-229.23-512-512h96c0 229.75 186.25 416 416 416 123.020 0 233.542-53.418 309.696-138.306l-149.696-149.694h352v352l-134.32-134.32zM928 448c0-229.75-186.25-416-416-416-123.020 0-233.542 53.418-309.694 138.306l149.694 149.694h-352v-352l134.32 134.32c93.608-102.216 228.154-166.32 377.68-166.32 282.77 0 512 229.23 512 512h-96z" />
<glyph unicode="&#xeadf;" glyph-name="file-pdf" d="M842.012 370.52c-13.648 13.446-43.914 20.566-89.972 21.172-31.178 0.344-68.702-2.402-108.17-7.928-17.674 10.198-35.892 21.294-50.188 34.658-38.462 35.916-70.568 85.772-90.576 140.594 1.304 5.12 2.414 9.62 3.448 14.212 0 0 21.666 123.060 15.932 164.666-0.792 5.706-1.276 7.362-2.808 11.796l-1.882 4.834c-5.894 13.592-17.448 27.994-35.564 27.208l-10.916 0.344c-20.202 0-36.664-10.332-40.986-25.774-13.138-48.434 0.418-120.892 24.98-214.738l-6.288-15.286c-17.588-42.876-39.63-86.060-59.078-124.158l-2.528-4.954c-20.46-40.040-39.026-74.028-55.856-102.822l-17.376-9.188c-1.264-0.668-31.044-16.418-38.028-20.644-59.256-35.38-98.524-75.542-105.038-107.416-2.072-10.17-0.53-23.186 10.014-29.212l16.806-8.458c7.292-3.652 14.978-5.502 22.854-5.502 42.206 0 91.202 52.572 158.698 170.366 77.93 25.37 166.652 46.458 244.412 58.090 59.258-33.368 132.142-56.544 178.142-56.544 8.168 0 15.212 0.78 20.932 2.294 8.822 2.336 16.258 7.368 20.792 14.194 8.926 13.432 10.734 31.932 8.312 50.876-0.72 5.622-5.21 12.574-10.068 17.32zM211.646 145.952c7.698 21.042 38.16 62.644 83.206 99.556 2.832 2.296 9.808 8.832 16.194 14.902-47.104-75.124-78.648-105.066-99.4-114.458zM478.434 760.314c13.566 0 21.284-34.194 21.924-66.254s-6.858-54.56-16.158-71.208c-7.702 24.648-11.426 63.5-11.426 88.904 0 0-0.566 48.558 5.66 48.558v0zM398.852 322.506c9.45 16.916 19.282 34.756 29.33 53.678 24.492 46.316 39.958 82.556 51.478 112.346 22.91-41.684 51.444-77.12 84.984-105.512 4.186-3.542 8.62-7.102 13.276-10.65-68.21-13.496-127.164-29.91-179.068-49.862v0zM828.902 326.348c-4.152-2.598-16.052-4.1-23.708-4.1-24.708 0-55.272 11.294-98.126 29.666 16.468 1.218 31.562 1.838 45.102 1.838 24.782 0 32.12 0.108 56.35-6.072 24.228-6.18 24.538-18.734 20.382-21.332v0zM917.806 730.924c-22.21 30.292-53.174 65.7-87.178 99.704s-69.412 64.964-99.704 87.178c-51.574 37.82-76.592 42.194-90.924 42.194h-496c-44.112 0-80-35.888-80-80v-864c0-44.112 35.886-80 80-80h736c44.112 0 80 35.888 80 80v624c0 14.332-4.372 39.35-42.194 90.924v0zM785.374 785.374c30.7-30.7 54.8-58.398 72.58-81.374h-153.954v153.946c22.982-17.78 50.678-41.878 81.374-72.572v0zM896 16c0-8.672-7.328-16-16-16h-736c-8.672 0-16 7.328-16 16v864c0 8.672 7.328 16 16 16 0 0 495.956 0.002 496 0v-224c0-17.672 14.324-32 32-32h224v-624z" />
<glyph unicode="&#xeae1;" glyph-name="file-word" d="M639.778 484.108h44.21l-51.012-226.178-66.324 318.010h-106.55l-77.114-318.010-57.816 318.010h-111.394l113.092-511.88h108.838l76.294 302.708 68.256-302.708h100.336l129.628 511.88h-170.446v-91.832zM917.806 730.924c-22.21 30.292-53.174 65.7-87.178 99.704s-69.412 64.964-99.704 87.178c-51.574 37.82-76.592 42.194-90.924 42.194h-496c-44.112 0-80-35.888-80-80v-864c0-44.112 35.886-80 80-80h736c44.112 0 80 35.888 80 80v624c0 14.332-4.372 39.35-42.194 90.924v0zM785.374 785.374c30.7-30.7 54.8-58.398 72.58-81.374h-153.954v153.946c22.982-17.78 50.678-41.878 81.374-72.572v0zM896 16c0-8.672-7.328-16-16-16h-736c-8.672 0-16 7.328-16 16v864c0 8.672 7.328 16 16 16 0 0 495.956 0.002 496 0v-224c0-17.672 14.324-32 32-32h224v-624z" />
<glyph unicode="&#xeae2;" glyph-name="file-excel" d="M743.028 576h-135.292l-95.732-141.032-95.742 141.032h-135.29l162.162-242.464-182.972-269.536h251.838v91.576h-50.156l50.156 74.994 111.396-166.57h140.444l-182.976 269.536 162.164 242.464zM917.806 730.924c-22.21 30.292-53.174 65.7-87.178 99.704s-69.412 64.964-99.704 87.178c-51.574 37.82-76.592 42.194-90.924 42.194h-496c-44.112 0-80-35.888-80-80v-864c0-44.112 35.886-80 80-80h736c44.112 0 80 35.888 80 80v624c0 14.332-4.372 39.35-42.194 90.924v0zM785.374 785.374c30.7-30.7 54.8-58.398 72.58-81.374h-153.954v153.946c22.982-17.78 50.678-41.878 81.374-72.572v0zM896 16c0-8.672-7.328-16-16-16h-736c-8.672 0-16 7.328-16 16v864c0 8.672 7.328 16 16 16 0 0 495.956 0.002 496 0v-224c0-17.672 14.324-32 32-32h224v-624z" />
</font></defs></svg>